<?xml version="1.0" encoding="utf-8"?>
<svg xmlns="http://www.w3.org/2000/svg" xmlns:xlink="http://www.w3.org/1999/xlink" width="576" height="384" viewBox="0 0 576 384">
<defs>
  <clipPath id="clip1300">
    <rect x="0" y="0" width="576" height="384"/>
  </clipPath>
</defs>
<polygon clip-path="url(#clip1300)" points="
0,384 576,384 576,0 0,0 
  " fill="#ffffff" fill-opacity="1"/>
<defs>
  <clipPath id="clip1301">
    <rect x="115" y="0" width="404" height="384"/>
  </clipPath>
</defs>
<polygon clip-path="url(#clip1300)" points="
22.4386,344.121 556.315,344.121 556.315,11.811 22.4386,11.811 
  " fill="#ffffff" fill-opacity="1"/>
<defs>
  <clipPath id="clip1302">
    <rect x="22" y="11" width="535" height="333"/>
  </clipPath>
</defs>
<polyline clip-path="url(#clip1302)" style="stroke:#000000; stroke-width:0.5; stroke-opacity:0.1; fill:none" points="
  22.4386,344.121 22.4386,11.811 
  "/>
<polyline clip-path="url(#clip1302)" style="stroke:#000000; stroke-width:0.5; stroke-opacity:0.1; fill:none" points="
  129.214,344.121 129.214,11.811 
  "/>
<polyline clip-path="url(#clip1302)" style="stroke:#000000; stroke-width:0.5; stroke-opacity:0.1; fill:none" points="
  235.989,344.121 235.989,11.811 
  "/>
<polyline clip-path="url(#clip1302)" style="stroke:#000000; stroke-width:0.5; stroke-opacity:0.1; fill:none" points="
  342.764,344.121 342.764,11.811 
  "/>
<polyline clip-path="url(#clip1302)" style="stroke:#000000; stroke-width:0.5; stroke-opacity:0.1; fill:none" points="
  449.54,344.121 449.54,11.811 
  "/>
<polyline clip-path="url(#clip1302)" style="stroke:#000000; stroke-width:0.5; stroke-opacity:0.1; fill:none" points="
  556.315,344.121 556.315,11.811 
  "/>
<polyline clip-path="url(#clip1302)" style="stroke:#000000; stroke-width:0.5; stroke-opacity:0.1; fill:none" points="
  22.4386,344.121 556.315,344.121 
  "/>
<polyline clip-path="url(#clip1302)" style="stroke:#000000; stroke-width:0.5; stroke-opacity:0.1; fill:none" points="
  22.4386,261.043 556.315,261.043 
  "/>
<polyline clip-path="url(#clip1302)" style="stroke:#000000; stroke-width:0.5; stroke-opacity:0.1; fill:none" points="
  22.4386,177.966 556.315,177.966 
  "/>
<polyline clip-path="url(#clip1302)" style="stroke:#000000; stroke-width:0.5; stroke-opacity:0.1; fill:none" points="
  22.4386,94.8884 556.315,94.8884 
  "/>
<polyline clip-path="url(#clip1302)" style="stroke:#000000; stroke-width:0.5; stroke-opacity:0.1; fill:none" points="
  22.4386,11.811 556.315,11.811 
  "/>
<polyline clip-path="url(#clip1300)" style="stroke:#000000; stroke-width:1; stroke-opacity:1; fill:none" points="
  22.4386,344.121 556.315,344.121 
  "/>
<polyline clip-path="url(#clip1300)" style="stroke:#000000; stroke-width:1; stroke-opacity:1; fill:none" points="
  22.4386,344.121 22.4386,11.811 
  "/>
<polyline clip-path="url(#clip1300)" style="stroke:#000000; stroke-width:1; stroke-opacity:1; fill:none" points="
  22.4386,344.121 22.4386,339.136 
  "/>
<polyline clip-path="url(#clip1300)" style="stroke:#000000; stroke-width:1; stroke-opacity:1; fill:none" points="
  129.214,344.121 129.214,339.136 
  "/>
<polyline clip-path="url(#clip1300)" style="stroke:#000000; stroke-width:1; stroke-opacity:1; fill:none" points="
  235.989,344.121 235.989,339.136 
  "/>
<polyline clip-path="url(#clip1300)" style="stroke:#000000; stroke-width:1; stroke-opacity:1; fill:none" points="
  342.764,344.121 342.764,339.136 
  "/>
<polyline clip-path="url(#clip1300)" style="stroke:#000000; stroke-width:1; stroke-opacity:1; fill:none" points="
  449.54,344.121 449.54,339.136 
  "/>
<polyline clip-path="url(#clip1300)" style="stroke:#000000; stroke-width:1; stroke-opacity:1; fill:none" points="
  556.315,344.121 556.315,339.136 
  "/>
<polyline clip-path="url(#clip1300)" style="stroke:#000000; stroke-width:1; stroke-opacity:1; fill:none" points="
  22.4386,344.121 30.4468,344.121 
  "/>
<polyline clip-path="url(#clip1300)" style="stroke:#000000; stroke-width:1; stroke-opacity:1; fill:none" points="
  22.4386,261.043 30.4468,261.043 
  "/>
<polyline clip-path="url(#clip1300)" style="stroke:#000000; stroke-width:1; stroke-opacity:1; fill:none" points="
  22.4386,177.966 30.4468,177.966 
  "/>
<polyline clip-path="url(#clip1300)" style="stroke:#000000; stroke-width:1; stroke-opacity:1; fill:none" points="
  22.4386,94.8884 30.4468,94.8884 
  "/>
<polyline clip-path="url(#clip1300)" style="stroke:#000000; stroke-width:1; stroke-opacity:1; fill:none" points="
  22.4386,11.811 30.4468,11.811 
  "/>
<g clip-path="url(#clip1300)">
<text style="fill:#000000; fill-opacity:1; font-family:Arial,Helvetica Neue,Helvetica,sans-serif; font-size:12; text-anchor:middle;" transform="rotate(0, 22.4386, 357.801)" x="22.4386" y="357.801">0.0</text>
</g>
<g clip-path="url(#clip1300)">
<text style="fill:#000000; fill-opacity:1; font-family:Arial,Helvetica Neue,Helvetica,sans-serif; font-size:12; text-anchor:middle;" transform="rotate(0, 129.214, 357.801)" x="129.214" y="357.801">0.2</text>
</g>
<g clip-path="url(#clip1300)">
<text style="fill:#000000; fill-opacity:1; font-family:Arial,Helvetica Neue,Helvetica,sans-serif; font-size:12; text-anchor:middle;" transform="rotate(0, 235.989, 357.801)" x="235.989" y="357.801">0.4</text>
</g>
<g clip-path="url(#clip1300)">
<text style="fill:#000000; fill-opacity:1; font-family:Arial,Helvetica Neue,Helvetica,sans-serif; font-size:12; text-anchor:middle;" transform="rotate(0, 342.764, 357.801)" x="342.764" y="357.801">0.6</text>
</g>
<g clip-path="url(#clip1300)">
<text style="fill:#000000; fill-opacity:1; font-family:Arial,Helvetica Neue,Helvetica,sans-serif; font-size:12; text-anchor:middle;" transform="rotate(0, 449.54, 357.801)" x="449.54" y="357.801">0.8</text>
</g>
<g clip-path="url(#clip1300)">
<text style="fill:#000000; fill-opacity:1; font-family:Arial,Helvetica Neue,Helvetica,sans-serif; font-size:12; text-anchor:middle;" transform="rotate(0, 556.315, 357.801)" x="556.315" y="357.801">1.0</text>
</g>
<g clip-path="url(#clip1300)">
<text style="fill:#000000; fill-opacity:1; font-family:Arial,Helvetica Neue,Helvetica,sans-serif; font-size:12; text-anchor:end;" transform="rotate(0, 16.6786, 348.621)" x="16.6786" y="348.621">0</text>
</g>
<g clip-path="url(#clip1300)">
<text style="fill:#000000; fill-opacity:1; font-family:Arial,Helvetica Neue,Helvetica,sans-serif; font-size:12; text-anchor:end;" transform="rotate(0, 16.6786, 265.543)" x="16.6786" y="265.543">2</text>
</g>
<g clip-path="url(#clip1300)">
<text style="fill:#000000; fill-opacity:1; font-family:Arial,Helvetica Neue,Helvetica,sans-serif; font-size:12; text-anchor:end;" transform="rotate(0, 16.6786, 182.466)" x="16.6786" y="182.466">4</text>
</g>
<g clip-path="url(#clip1300)">
<text style="fill:#000000; fill-opacity:1; font-family:Arial,Helvetica Neue,Helvetica,sans-serif; font-size:12; text-anchor:end;" transform="rotate(0, 16.6786, 99.3884)" x="16.6786" y="99.3884">6</text>
</g>
<g clip-path="url(#clip1300)">
<text style="fill:#000000; fill-opacity:1; font-family:Arial,Helvetica Neue,Helvetica,sans-serif; font-size:12; text-anchor:end;" transform="rotate(0, 16.6786, 16.311)" x="16.6786" y="16.311">8</text>
</g>
<polyline clip-path="url(#clip1302)" style="stroke:#000000; stroke-width:1; stroke-opacity:1; fill:none" points="
  22.4386,11.811 556.315,11.811 
  "/>
<polyline clip-path="url(#clip1302)" style="stroke:#000000; stroke-width:1; stroke-opacity:1; fill:none" points="
  556.315,344.121 556.315,11.811 
  "/>
<g clip-path="url(#clip1300)">
<text style="fill:#000000; fill-opacity:1; font-family:Arial,Helvetica Neue,Helvetica,sans-serif; font-size:16; text-anchor:middle;" transform="rotate(0, 289.377, 381.6)" x="289.377" y="381.6">Nestedness</text>
</g>
<polygon clip-path="url(#clip1302)" points="
187.407,344.12 188.977,344.12 190.546,344.12 192.115,344.118 193.684,344.116 195.254,344.11 196.823,344.1 198.392,344.084 199.961,344.059 201.531,344.023 
  203.1,343.976 204.669,343.92 206.238,343.86 207.808,343.802 209.377,343.753 210.946,343.718 212.515,343.694 214.084,343.674 215.654,343.643 217.223,343.583 
  218.792,343.478 220.361,343.317 221.931,343.102 223.5,342.845 225.069,342.571 226.638,342.311 228.208,342.091 229.777,341.931 231.346,341.83 232.915,341.772 
  234.485,341.729 236.054,341.659 237.623,341.522 239.192,341.28 240.762,340.906 242.331,340.386 243.9,339.726 245.469,338.947 247.039,338.085 248.608,337.185 
  250.177,336.284 251.746,335.408 253.315,334.561 254.885,333.723 256.454,332.856 258.023,331.911 259.592,330.829 261.162,329.554 262.731,328.035 264.3,326.235 
  265.869,324.139 267.439,321.767 269.008,319.177 270.577,316.462 272.146,313.728 273.716,311.071 275.285,308.544 276.854,306.136 278.423,303.768 279.993,301.31 
  281.562,298.609 283.131,295.523 284.7,291.938 286.269,287.78 287.839,283.014 289.408,277.638 290.977,271.678 292.546,265.189 294.116,258.256 295.685,250.977 
  297.254,243.456 298.823,235.78 300.393,228.016 301.962,220.212 303.531,212.421 305.1,204.72 306.67,197.222 308.239,190.061 309.808,183.371 311.377,177.241 
  312.947,171.69 314.516,166.646 316.085,161.97 317.654,157.482 319.224,153.014 320.793,148.445 322.362,143.723 323.931,138.862 325.5,133.925 327.07,128.997 
  328.639,124.176 330.208,119.572 331.777,115.316 333.347,111.557 334.916,108.449 336.485,106.109 338.054,104.576 339.624,103.784 341.193,103.573 342.762,103.734 
  344.331,104.076 345.901,104.482 347.47,104.935 349.039,105.506 350.608,106.316 352.178,107.494 353.747,109.144 355.316,111.324 356.885,114.038 358.454,117.223 
  360.024,120.757 361.593,124.472 363.162,128.188 364.731,131.761 366.301,135.131 367.87,138.341 369.439,141.536 371.008,144.926 372.578,148.729 374.147,153.125 
  375.716,158.214 377.285,163.998 378.855,170.39 380.424,177.233 381.993,184.336 383.562,191.523 385.132,198.668 386.701,205.728 388.27,212.747 389.839,219.821 
  391.409,227.055 392.978,234.509 394.547,242.159 396.116,249.898 397.685,257.557 399.255,264.951 400.824,271.927 402.393,278.401 403.962,284.365 405.532,289.876 
  407.101,295.019 408.67,299.867 410.239,304.444 411.809,308.72 413.378,312.618 414.947,316.047 416.516,318.94 418.086,321.284 419.655,323.125 421.224,324.559 
  422.793,325.71 424.363,326.696 425.932,327.618 427.501,328.544 429.07,329.516 430.639,330.556 432.209,331.674 433.778,332.866 435.347,334.12 436.916,335.409 
  438.486,336.695 440.055,337.928 441.624,339.056 443.193,340.03 444.763,340.811 446.332,341.381 447.901,341.738 449.47,341.904 451.04,341.921 452.609,341.848 
  454.178,341.747 455.747,341.675 457.317,341.672 458.886,341.754 460.455,341.909 462.024,342.114 463.594,342.335 465.163,342.545 466.732,342.727 468.301,342.877 
  469.87,343 471.44,343.107 473.009,343.209 474.578,343.315 476.147,343.426 477.717,343.543 479.286,343.659 480.855,343.769 482.424,343.866 483.994,343.945 
  485.563,344.007 487.132,344.051 488.701,344.08 490.271,344.099 491.84,344.11 493.409,344.115 494.978,344.118 496.548,344.12 498.117,344.12 499.686,344.12 
  499.686,344.121 498.117,344.121 496.548,344.121 494.978,344.121 493.409,344.121 491.84,344.121 490.271,344.121 488.701,344.121 487.132,344.121 485.563,344.121 
  483.994,344.121 482.424,344.121 480.855,344.121 479.286,344.121 477.717,344.121 476.147,344.121 474.578,344.121 473.009,344.121 471.44,344.121 469.87,344.121 
  468.301,344.121 466.732,344.121 465.163,344.121 463.594,344.121 462.024,344.121 460.455,344.121 458.886,344.121 457.317,344.121 455.747,344.121 454.178,344.121 
  452.609,344.121 451.04,344.121 449.47,344.121 447.901,344.121 446.332,344.121 444.763,344.121 443.193,344.121 441.624,344.121 440.055,344.121 438.486,344.121 
  436.916,344.121 435.347,344.121 433.778,344.121 432.209,344.121 430.639,344.121 429.07,344.121 427.501,344.121 425.932,344.121 424.363,344.121 422.793,344.121 
  421.224,344.121 419.655,344.121 418.086,344.121 416.516,344.121 414.947,344.121 413.378,344.121 411.809,344.121 410.239,344.121 408.67,344.121 407.101,344.121 
  405.532,344.121 403.962,344.121 402.393,344.121 400.824,344.121 399.255,344.121 397.685,344.121 396.116,344.121 394.547,344.121 392.978,344.121 391.409,344.121 
  389.839,344.121 388.27,344.121 386.701,344.121 385.132,344.121 383.562,344.121 381.993,344.121 380.424,344.121 378.855,344.121 377.285,344.121 375.716,344.121 
  374.147,344.121 372.578,344.121 371.008,344.121 369.439,344.121 367.87,344.121 366.301,344.121 364.731,344.121 363.162,344.121 361.593,344.121 360.024,344.121 
  358.454,344.121 356.885,344.121 355.316,344.121 353.747,344.121 352.178,344.121 350.608,344.121 349.039,344.121 347.47,344.121 345.901,344.121 344.331,344.121 
  342.762,344.121 341.193,344.121 339.624,344.121 338.054,344.121 336.485,344.121 334.916,344.121 333.347,344.121 331.777,344.121 330.208,344.121 328.639,344.121 
  327.07,344.121 325.5,344.121 323.931,344.121 322.362,344.121 320.793,344.121 319.224,344.121 317.654,344.121 316.085,344.121 314.516,344.121 312.947,344.121 
  311.377,344.121 309.808,344.121 308.239,344.121 306.67,344.121 305.1,344.121 303.531,344.121 301.962,344.121 300.393,344.121 298.823,344.121 297.254,344.121 
  295.685,344.121 294.116,344.121 292.546,344.121 290.977,344.121 289.408,344.121 287.839,344.121 286.269,344.121 284.7,344.121 283.131,344.121 281.562,344.121 
  279.993,344.121 278.423,344.121 276.854,344.121 275.285,344.121 273.716,344.121 272.146,344.121 270.577,344.121 269.008,344.121 267.439,344.121 265.869,344.121 
  264.3,344.121 262.731,344.121 261.162,344.121 259.592,344.121 258.023,344.121 256.454,344.121 254.885,344.121 253.315,344.121 251.746,344.121 250.177,344.121 
  248.608,344.121 247.039,344.121 245.469,344.121 243.9,344.121 242.331,344.121 240.762,344.121 239.192,344.121 237.623,344.121 236.054,344.121 234.485,344.121 
  232.915,344.121 231.346,344.121 229.777,344.121 228.208,344.121 226.638,344.121 225.069,344.121 223.5,344.121 221.931,344.121 220.361,344.121 218.792,344.121 
  217.223,344.121 215.654,344.121 214.084,344.121 212.515,344.121 210.946,344.121 209.377,344.121 207.808,344.121 206.238,344.121 204.669,344.121 203.1,344.121 
  201.531,344.121 199.961,344.121 198.392,344.121 196.823,344.121 195.254,344.121 193.684,344.121 192.115,344.121 190.546,344.121 188.977,344.121 187.407,344.121 
  
  " fill="#87ceeb" fill-opacity="0.4"/>
<polyline clip-path="url(#clip1302)" style="stroke:#87ceeb; stroke-width:1; stroke-opacity:1; fill:none" points="
  187.407,344.12 188.977,344.12 190.546,344.12 192.115,344.118 193.684,344.116 195.254,344.11 196.823,344.1 198.392,344.084 199.961,344.059 201.531,344.023 
  203.1,343.976 204.669,343.92 206.238,343.86 207.808,343.802 209.377,343.753 210.946,343.718 212.515,343.694 214.084,343.674 215.654,343.643 217.223,343.583 
  218.792,343.478 220.361,343.317 221.931,343.102 223.5,342.845 225.069,342.571 226.638,342.311 228.208,342.091 229.777,341.931 231.346,341.83 232.915,341.772 
  234.485,341.729 236.054,341.659 237.623,341.522 239.192,341.28 240.762,340.906 242.331,340.386 243.9,339.726 245.469,338.947 247.039,338.085 248.608,337.185 
  250.177,336.284 251.746,335.408 253.315,334.561 254.885,333.723 256.454,332.856 258.023,331.911 259.592,330.829 261.162,329.554 262.731,328.035 264.3,326.235 
  265.869,324.139 267.439,321.767 269.008,319.177 270.577,316.462 272.146,313.728 273.716,311.071 275.285,308.544 276.854,306.136 278.423,303.768 279.993,301.31 
  281.562,298.609 283.131,295.523 284.7,291.938 286.269,287.78 287.839,283.014 289.408,277.638 290.977,271.678 292.546,265.189 294.116,258.256 295.685,250.977 
  297.254,243.456 298.823,235.78 300.393,228.016 301.962,220.212 303.531,212.421 305.1,204.72 306.67,197.222 308.239,190.061 309.808,183.371 311.377,177.241 
  312.947,171.69 314.516,166.646 316.085,161.97 317.654,157.482 319.224,153.014 320.793,148.445 322.362,143.723 323.931,138.862 325.5,133.925 327.07,128.997 
  328.639,124.176 330.208,119.572 331.777,115.316 333.347,111.557 334.916,108.449 336.485,106.109 338.054,104.576 339.624,103.784 341.193,103.573 342.762,103.734 
  344.331,104.076 345.901,104.482 347.47,104.935 349.039,105.506 350.608,106.316 352.178,107.494 353.747,109.144 355.316,111.324 356.885,114.038 358.454,117.223 
  360.024,120.757 361.593,124.472 363.162,128.188 364.731,131.761 366.301,135.131 367.87,138.341 369.439,141.536 371.008,144.926 372.578,148.729 374.147,153.125 
  375.716,158.214 377.285,163.998 378.855,170.39 380.424,177.233 381.993,184.336 383.562,191.523 385.132,198.668 386.701,205.728 388.27,212.747 389.839,219.821 
  391.409,227.055 392.978,234.509 394.547,242.159 396.116,249.898 397.685,257.557 399.255,264.951 400.824,271.927 402.393,278.401 403.962,284.365 405.532,289.876 
  407.101,295.019 408.67,299.867 410.239,304.444 411.809,308.72 413.378,312.618 414.947,316.047 416.516,318.94 418.086,321.284 419.655,323.125 421.224,324.559 
  422.793,325.71 424.363,326.696 425.932,327.618 427.501,328.544 429.07,329.516 430.639,330.556 432.209,331.674 433.778,332.866 435.347,334.12 436.916,335.409 
  438.486,336.695 440.055,337.928 441.624,339.056 443.193,340.03 444.763,340.811 446.332,341.381 447.901,341.738 449.47,341.904 451.04,341.921 452.609,341.848 
  454.178,341.747 455.747,341.675 457.317,341.672 458.886,341.754 460.455,341.909 462.024,342.114 463.594,342.335 465.163,342.545 466.732,342.727 468.301,342.877 
  469.87,343 471.44,343.107 473.009,343.209 474.578,343.315 476.147,343.426 477.717,343.543 479.286,343.659 480.855,343.769 482.424,343.866 483.994,343.945 
  485.563,344.007 487.132,344.051 488.701,344.08 490.271,344.099 491.84,344.11 493.409,344.115 494.978,344.118 496.548,344.12 498.117,344.12 499.686,344.12 
  
  "/>
<polyline clip-path="url(#clip1302)" style="stroke:#87ceeb; stroke-width:1; stroke-opacity:1; fill:none" stroke-dasharray="8, 5" points="
  191.376,344.121 192.906,344.12 194.435,344.12 195.964,344.119 197.494,344.116 199.023,344.111 200.552,344.1 202.082,344.081 203.611,344.049 205.14,344.004 
  206.67,343.942 208.199,343.866 209.728,343.782 211.258,343.697 212.787,343.62 214.316,343.557 215.846,343.51 217.375,343.475 218.905,343.443 220.434,343.399 
  221.963,343.325 223.493,343.211 225.022,343.056 226.551,342.875 228.081,342.693 229.61,342.536 231.139,342.424 232.669,342.36 234.198,342.325 235.727,342.289 
  237.257,342.212 238.786,342.064 240.315,341.821 241.845,341.476 243.374,341.036 244.904,340.514 246.433,339.929 247.962,339.295 249.492,338.616 251.021,337.889 
  252.55,337.097 254.08,336.222 255.609,335.245 257.138,334.158 258.668,332.968 260.197,331.69 261.726,330.343 263.256,328.933 264.785,327.438 266.314,325.811 
  267.844,323.991 269.373,321.93 270.903,319.621 272.432,317.109 273.961,314.467 275.491,311.759 277.02,308.992 278.549,306.103 280.079,302.984 281.608,299.534 
  283.137,295.719 284.667,291.588 286.196,287.255 287.725,282.839 289.255,278.403 290.784,273.914 292.313,269.264 293.843,264.324 295.372,259.015 296.901,253.354 
  298.431,247.452 299.96,241.449 301.49,235.445 303.019,229.444 304.548,223.366 306.078,217.104 307.607,210.613 309.136,203.96 310.666,197.333 312.195,190.963 
  313.724,185.029 315.254,179.562 316.783,174.432 318.312,169.399 319.842,164.218 321.371,158.738 322.9,152.948 324.43,146.965 325.959,140.966 327.489,135.109 
  329.018,129.49 330.547,124.137 332.077,119.059 333.606,114.31 335.135,110.018 336.665,106.356 338.194,103.458 339.723,101.333 341.253,99.8377 342.782,98.7379 
  344.311,97.8236 345.841,97.0048 347.37,96.3323 348.899,95.944 350.429,95.9873 351.958,96.5733 353.488,97.7754 355.017,99.6462 356.546,102.212 358.076,105.44 
  359.605,109.205 361.134,113.3 362.664,117.507 364.193,121.696 365.722,125.895 367.252,130.277 368.781,135.07 370.31,140.428 371.84,146.344 373.369,152.651 
  374.898,159.103 376.428,165.505 377.957,171.792 379.486,178.037 381.016,184.361 382.545,190.831 384.075,197.386 385.604,203.86 387.133,210.063 388.663,215.882 
  390.192,221.33 391.721,226.536 393.251,231.677 394.78,236.907 396.309,242.32 397.839,247.945 399.368,253.753 400.897,259.681 402.427,265.635 403.956,271.508 
  405.485,277.202 407.015,282.65 408.544,287.823 410.074,292.713 411.603,297.307 413.132,301.566 414.662,305.434 416.191,308.861 417.72,311.848 419.25,314.45 
  420.779,316.768 422.308,318.905 423.838,320.924 425.367,322.835 426.896,324.606 428.426,326.192 429.955,327.572 431.484,328.76 433.014,329.809 434.543,330.79 
  436.072,331.778 437.602,332.826 439.131,333.951 440.661,335.137 442.19,336.334 443.719,337.479 445.249,338.511 446.778,339.385 448.307,340.081 449.837,340.603 
  451.366,340.978 452.895,341.25 454.425,341.47 455.954,341.683 457.483,341.919 459.013,342.18 460.542,342.451 462.071,342.702 463.601,342.909 465.13,343.061 
  466.66,343.161 468.189,343.228 469.718,343.285 471.248,343.349 472.777,343.431 474.306,343.531 475.836,343.641 477.365,343.752 478.894,343.853 480.424,343.938 
  481.953,344.004 483.482,344.051 485.012,344.082 486.541,344.101 488.07,344.111 489.6,344.116 491.129,344.119 492.659,344.12 494.188,344.12 495.717,344.121 
  
  "/>
<polyline clip-path="url(#clip1302)" style="stroke:#000000; stroke-width:3; stroke-opacity:1; fill:none" points="
  430.814,33575.1 430.814,-33219.2 
  "/>
<polyline clip-path="url(#clip1302)" style="stroke:#cf6c24; stroke-width:2; stroke-opacity:1; fill:none" stroke-dasharray="1, 2" points="
  310.686,33575.1 310.686,-33219.2 
  "/>
<polygon clip-path="url(#clip1300)" points="
39.7186,76.611 126.079,76.611 126.079,31.251 39.7186,31.251 
  " fill="#ffffff" fill-opacity="1"/>
<polyline clip-path="url(#clip1300)" style="stroke:#000000; stroke-width:1; stroke-opacity:1; fill:none" points="
  39.7186,76.611 126.079,76.611 126.079,31.251 39.7186,31.251 39.7186,76.611 
  "/>
<polyline clip-path="url(#clip1300)" style="stroke:#000000; stroke-width:3; stroke-opacity:1; fill:none" points="
  45.4786,46.371 80.0386,46.371 
  "/>
<g clip-path="url(#clip1300)">
<text style="fill:#000000; fill-opacity:1; font-family:Arial,Helvetica Neue,Helvetica,sans-serif; font-size:12; text-anchor:start;" transform="rotate(0, 85.7986, 50.871)" x="85.7986" y="50.871">Obs.</text>
</g>
<polyline clip-path="url(#clip1300)" style="stroke:#cf6c24; stroke-width:2; stroke-opacity:1; fill:none" stroke-dasharray="1, 2" points="
  45.4786,61.491 80.0386,61.491 
  "/>
<g clip-path="url(#clip1300)">
<text style="fill:#000000; fill-opacity:1; font-family:Arial,Helvetica Neue,Helvetica,sans-serif; font-size:12; text-anchor:start;" transform="rotate(0, 85.7986, 65.991)" x="85.7986" y="65.991">Prob.</text>
</g>
</svg>
