<?xml version="1.0" encoding="utf-8"?>
<svg xmlns="http://www.w3.org/2000/svg" xmlns:xlink="http://www.w3.org/1999/xlink" width="576" height="384" viewBox="0 0 576 384">
<defs>
  <clipPath id="clip8000">
    <rect x="0" y="0" width="576" height="384"/>
  </clipPath>
</defs>
<polygon clip-path="url(#clip8000)" points="
0,384 576,384 576,0 0,0 
  " fill="#ffffff" fill-opacity="1"/>
<defs>
  <clipPath id="clip8001">
    <rect x="115" y="0" width="404" height="384"/>
  </clipPath>
</defs>
<polygon clip-path="url(#clip8000)" points="
47.0391,359.869 556.315,359.869 556.315,31.4961 47.0391,31.4961 
  " fill="#ffffff" fill-opacity="1"/>
<defs>
  <clipPath id="clip8002">
    <rect x="47" y="31" width="510" height="329"/>
  </clipPath>
</defs>
<g clip-path="url(#clip8000)">
<text style="fill:#000000; fill-opacity:1; font-family:Arial,Helvetica Neue,Helvetica,sans-serif; font-size:21; text-anchor:middle;" transform="rotate(0, 301.677, 18)" x="301.677" y="18">Distance: 168</text>
</g>
<polyline clip-path="url(#clip8002)" style="stroke:#000000; stroke-width:1; stroke-opacity:0.5; fill:none" points="
  339.591,263.688 396.695,243.163 418.041,240.632 409.12,213.625 418.919,188.907 422.537,222.941 444.524,259.956 454.18,233.322 456.978,221.576 484.999,143.681 
  527.739,205.133 540.772,195.2 541.901,199.081 465.593,302.654 466.421,302.42 465.989,245.61 465.6,245.834 466.178,242.673 462.731,237.048 461.43,224.309 
  457.322,244.264 455.475,262.009 438.977,277.009 430.16,282.414 429.034,286.354 429.061,282.997 429.079,281.291 425.177,286.382 425.03,286.33 
  426.24,286.622 425.024,286.246 415.481,305.385 415.421,304.916 414.354,287.64 416.077,288.6 414.89,288.052 411.642,289.447 411.683,289.51 411.493,288.951 
  414.107,255.168 417.557,286.894 428.588,282.488 428.591,282.476 429.392,283.025 424.681,285.368 421.999,284.492 415.406,305.394 415.596,304.97 415.466,305.451 
  406.076,315.932 406.075,315.925 406.075,315.929 406.072,315.916 407.019,278.585 406.346,262.116 405.316,264.027 399.554,293.574 399.466,293.318 395.203,280.833 
  392.602,266.978 393.583,242.571 326.137,255.845 320.582,243.292 315.327,268.45 303.28,260.624 299.629,258.721 297.186,258.508 297.19,258.509 299.669,259.162 
  301.952,263.264 307.015,265.306 305.136,257.294 305.263,271.162 301.663,271.418 302.059,261.197 299.187,260.503 294.64,278.947 292.622,275.597 295.108,286.208 
  287.19,287.049 286.357,284.943 287.359,267.941 287.556,274.662 287.633,274.619 288.578,292.327 287.199,275.802 282.47,275.603 277.27,283.048 275.652,289.498 
  274.368,286.041 271.736,274.957 281.798,246.778 274.308,251.326 274.307,251.326 274.292,251.432 274.564,250.922 274.909,253.992 275.741,254.734 275.469,253.464 
  274.027,255.108 273.071,255.789 269.585,263.276 271.798,274.998 263.704,274.336 257.041,318.154 255.068,330.606 259.766,320.817 254.845,318.312 253.314,317.503 
  253.22,317.069 258.47,322.832 257.485,317.352 257.484,317.359 257.084,318.135 257.913,317.981 252.74,315.451 245.405,328.25 245.249,331.538 244.685,329.582 
  243.568,318.983 239.198,322.515 239.375,349.075 226.867,350.575 166.794,175.994 160.469,183.663 160.122,183.946 160.475,183.664 160.451,183.573 139.717,164.901 
  140.318,165.895 107.522,129.097 101.498,135.248 99.8998,132.589 89.1837,137.996 93.7032,121.99 80.3851,133.206 61.4526,40.7896 115.289,85.1141 181.106,44.0389 
  181.106,44.0394 181.106,44.0394 182.759,45.2927 182.759,45.3008 182.76,45.3035 183.965,46.3213 213.488,228.25 217.34,233.348 217.705,241.067 243.988,243.166 
  245.439,279.407 245.538,281.04 259.984,276.083 263.059,271.802 259.735,263.785 258.583,276.457 252.574,287.058 257.235,304.221 257.475,317.283 255.099,317.197 
  260.537,323.35 259.506,321.211 259.789,320.826 263.947,307.983 261.965,313.198 268.765,282.806 270.086,285.856 268.044,281.854 267.049,305.597 267.173,305.62 
  268.875,282.816 263.665,247.707 264.303,234.129 261.918,194.304 260.238,198.779 259.659,191.256 228.942,199.197 225.027,232.924 217.046,219.059 219.103,233.007 
  217.357,233.37 212.664,221.695 213.174,222.396 213.544,228.26 213.476,228.235 211.63,228.218 217.698,233.498 217.34,233.349 217.733,241.047 242.141,266.229 
  245.146,264.866 255.405,260.766 299.634,258.715 302.115,260.992 305.121,238.635 308.202,260.823 308.261,260.379 315.353,268.455 315.324,268.466 326.137,255.845 
  
  "/>
<polyline clip-path="url(#clip8002)" style="stroke:#000000; stroke-width:1; stroke-opacity:0.5; fill:none" points="
  326.137,255.845 339.591,263.688 
  "/>
<circle clip-path="url(#clip8002)" style="fill:#000000; stroke:none; fill-opacity:1" cx="339.591" cy="263.688" r="3"/>
<circle clip-path="url(#clip8002)" style="fill:#000000; stroke:none; fill-opacity:1" cx="396.695" cy="243.163" r="3"/>
<circle clip-path="url(#clip8002)" style="fill:#000000; stroke:none; fill-opacity:1" cx="418.041" cy="240.632" r="3"/>
<circle clip-path="url(#clip8002)" style="fill:#000000; stroke:none; fill-opacity:1" cx="409.12" cy="213.625" r="3"/>
<circle clip-path="url(#clip8002)" style="fill:#000000; stroke:none; fill-opacity:1" cx="418.919" cy="188.907" r="3"/>
<circle clip-path="url(#clip8002)" style="fill:#000000; stroke:none; fill-opacity:1" cx="422.537" cy="222.941" r="3"/>
<circle clip-path="url(#clip8002)" style="fill:#000000; stroke:none; fill-opacity:1" cx="444.524" cy="259.956" r="3"/>
<circle clip-path="url(#clip8002)" style="fill:#000000; stroke:none; fill-opacity:1" cx="454.18" cy="233.322" r="3"/>
<circle clip-path="url(#clip8002)" style="fill:#000000; stroke:none; fill-opacity:1" cx="456.978" cy="221.576" r="3"/>
<circle clip-path="url(#clip8002)" style="fill:#000000; stroke:none; fill-opacity:1" cx="484.999" cy="143.681" r="3"/>
<circle clip-path="url(#clip8002)" style="fill:#000000; stroke:none; fill-opacity:1" cx="527.739" cy="205.133" r="3"/>
<circle clip-path="url(#clip8002)" style="fill:#000000; stroke:none; fill-opacity:1" cx="540.772" cy="195.2" r="3"/>
<circle clip-path="url(#clip8002)" style="fill:#000000; stroke:none; fill-opacity:1" cx="541.901" cy="199.081" r="3"/>
<circle clip-path="url(#clip8002)" style="fill:#000000; stroke:none; fill-opacity:1" cx="465.593" cy="302.654" r="3"/>
<circle clip-path="url(#clip8002)" style="fill:#000000; stroke:none; fill-opacity:1" cx="466.421" cy="302.42" r="3"/>
<circle clip-path="url(#clip8002)" style="fill:#000000; stroke:none; fill-opacity:1" cx="465.989" cy="245.61" r="3"/>
<circle clip-path="url(#clip8002)" style="fill:#000000; stroke:none; fill-opacity:1" cx="465.6" cy="245.834" r="3"/>
<circle clip-path="url(#clip8002)" style="fill:#000000; stroke:none; fill-opacity:1" cx="466.178" cy="242.673" r="3"/>
<circle clip-path="url(#clip8002)" style="fill:#000000; stroke:none; fill-opacity:1" cx="462.731" cy="237.048" r="3"/>
<circle clip-path="url(#clip8002)" style="fill:#000000; stroke:none; fill-opacity:1" cx="461.43" cy="224.309" r="3"/>
<circle clip-path="url(#clip8002)" style="fill:#000000; stroke:none; fill-opacity:1" cx="461.43" cy="224.309" r="3"/>
<circle clip-path="url(#clip8002)" style="fill:#000000; stroke:none; fill-opacity:1" cx="457.322" cy="244.264" r="3"/>
<circle clip-path="url(#clip8002)" style="fill:#000000; stroke:none; fill-opacity:1" cx="455.475" cy="262.009" r="3"/>
<circle clip-path="url(#clip8002)" style="fill:#000000; stroke:none; fill-opacity:1" cx="438.977" cy="277.009" r="3"/>
<circle clip-path="url(#clip8002)" style="fill:#000000; stroke:none; fill-opacity:1" cx="430.16" cy="282.414" r="3"/>
<circle clip-path="url(#clip8002)" style="fill:#000000; stroke:none; fill-opacity:1" cx="429.034" cy="286.354" r="3"/>
<circle clip-path="url(#clip8002)" style="fill:#000000; stroke:none; fill-opacity:1" cx="429.061" cy="282.997" r="3"/>
<circle clip-path="url(#clip8002)" style="fill:#000000; stroke:none; fill-opacity:1" cx="429.079" cy="281.291" r="3"/>
<circle clip-path="url(#clip8002)" style="fill:#000000; stroke:none; fill-opacity:1" cx="425.177" cy="286.382" r="3"/>
<circle clip-path="url(#clip8002)" style="fill:#000000; stroke:none; fill-opacity:1" cx="425.03" cy="286.33" r="3"/>
<circle clip-path="url(#clip8002)" style="fill:#000000; stroke:none; fill-opacity:1" cx="426.24" cy="286.622" r="3"/>
<circle clip-path="url(#clip8002)" style="fill:#000000; stroke:none; fill-opacity:1" cx="425.024" cy="286.246" r="3"/>
<circle clip-path="url(#clip8002)" style="fill:#000000; stroke:none; fill-opacity:1" cx="415.481" cy="305.385" r="3"/>
<circle clip-path="url(#clip8002)" style="fill:#000000; stroke:none; fill-opacity:1" cx="415.421" cy="304.916" r="3"/>
<circle clip-path="url(#clip8002)" style="fill:#000000; stroke:none; fill-opacity:1" cx="414.354" cy="287.64" r="3"/>
<circle clip-path="url(#clip8002)" style="fill:#000000; stroke:none; fill-opacity:1" cx="416.077" cy="288.6" r="3"/>
<circle clip-path="url(#clip8002)" style="fill:#000000; stroke:none; fill-opacity:1" cx="414.89" cy="288.052" r="3"/>
<circle clip-path="url(#clip8002)" style="fill:#000000; stroke:none; fill-opacity:1" cx="411.642" cy="289.447" r="3"/>
<circle clip-path="url(#clip8002)" style="fill:#000000; stroke:none; fill-opacity:1" cx="411.683" cy="289.51" r="3"/>
<circle clip-path="url(#clip8002)" style="fill:#000000; stroke:none; fill-opacity:1" cx="411.493" cy="288.951" r="3"/>
<circle clip-path="url(#clip8002)" style="fill:#000000; stroke:none; fill-opacity:1" cx="414.107" cy="255.168" r="3"/>
<circle clip-path="url(#clip8002)" style="fill:#000000; stroke:none; fill-opacity:1" cx="417.557" cy="286.894" r="3"/>
<circle clip-path="url(#clip8002)" style="fill:#000000; stroke:none; fill-opacity:1" cx="428.588" cy="282.488" r="3"/>
<circle clip-path="url(#clip8002)" style="fill:#000000; stroke:none; fill-opacity:1" cx="428.591" cy="282.476" r="3"/>
<circle clip-path="url(#clip8002)" style="fill:#000000; stroke:none; fill-opacity:1" cx="429.392" cy="283.025" r="3"/>
<circle clip-path="url(#clip8002)" style="fill:#000000; stroke:none; fill-opacity:1" cx="424.681" cy="285.368" r="3"/>
<circle clip-path="url(#clip8002)" style="fill:#000000; stroke:none; fill-opacity:1" cx="421.999" cy="284.492" r="3"/>
<circle clip-path="url(#clip8002)" style="fill:#000000; stroke:none; fill-opacity:1" cx="415.406" cy="305.394" r="3"/>
<circle clip-path="url(#clip8002)" style="fill:#000000; stroke:none; fill-opacity:1" cx="415.596" cy="304.97" r="3"/>
<circle clip-path="url(#clip8002)" style="fill:#000000; stroke:none; fill-opacity:1" cx="415.466" cy="305.451" r="3"/>
<circle clip-path="url(#clip8002)" style="fill:#000000; stroke:none; fill-opacity:1" cx="406.076" cy="315.932" r="3"/>
<circle clip-path="url(#clip8002)" style="fill:#000000; stroke:none; fill-opacity:1" cx="406.075" cy="315.925" r="3"/>
<circle clip-path="url(#clip8002)" style="fill:#000000; stroke:none; fill-opacity:1" cx="406.075" cy="315.929" r="3"/>
<circle clip-path="url(#clip8002)" style="fill:#000000; stroke:none; fill-opacity:1" cx="406.072" cy="315.916" r="3"/>
<circle clip-path="url(#clip8002)" style="fill:#000000; stroke:none; fill-opacity:1" cx="407.019" cy="278.585" r="3"/>
<circle clip-path="url(#clip8002)" style="fill:#000000; stroke:none; fill-opacity:1" cx="406.346" cy="262.116" r="3"/>
<circle clip-path="url(#clip8002)" style="fill:#000000; stroke:none; fill-opacity:1" cx="405.316" cy="264.027" r="3"/>
<circle clip-path="url(#clip8002)" style="fill:#000000; stroke:none; fill-opacity:1" cx="399.554" cy="293.574" r="3"/>
<circle clip-path="url(#clip8002)" style="fill:#000000; stroke:none; fill-opacity:1" cx="399.466" cy="293.318" r="3"/>
<circle clip-path="url(#clip8002)" style="fill:#000000; stroke:none; fill-opacity:1" cx="395.203" cy="280.833" r="3"/>
<circle clip-path="url(#clip8002)" style="fill:#000000; stroke:none; fill-opacity:1" cx="392.602" cy="266.978" r="3"/>
<circle clip-path="url(#clip8002)" style="fill:#000000; stroke:none; fill-opacity:1" cx="393.583" cy="242.571" r="3"/>
<circle clip-path="url(#clip8002)" style="fill:#000000; stroke:none; fill-opacity:1" cx="326.137" cy="255.845" r="3"/>
<circle clip-path="url(#clip8002)" style="fill:#000000; stroke:none; fill-opacity:1" cx="320.582" cy="243.292" r="3"/>
<circle clip-path="url(#clip8002)" style="fill:#000000; stroke:none; fill-opacity:1" cx="315.327" cy="268.45" r="3"/>
<circle clip-path="url(#clip8002)" style="fill:#000000; stroke:none; fill-opacity:1" cx="303.28" cy="260.624" r="3"/>
<circle clip-path="url(#clip8002)" style="fill:#000000; stroke:none; fill-opacity:1" cx="299.629" cy="258.721" r="3"/>
<circle clip-path="url(#clip8002)" style="fill:#000000; stroke:none; fill-opacity:1" cx="297.186" cy="258.508" r="3"/>
<circle clip-path="url(#clip8002)" style="fill:#000000; stroke:none; fill-opacity:1" cx="297.19" cy="258.509" r="3"/>
<circle clip-path="url(#clip8002)" style="fill:#000000; stroke:none; fill-opacity:1" cx="299.669" cy="259.162" r="3"/>
<circle clip-path="url(#clip8002)" style="fill:#000000; stroke:none; fill-opacity:1" cx="301.952" cy="263.264" r="3"/>
<circle clip-path="url(#clip8002)" style="fill:#000000; stroke:none; fill-opacity:1" cx="307.015" cy="265.306" r="3"/>
<circle clip-path="url(#clip8002)" style="fill:#000000; stroke:none; fill-opacity:1" cx="305.136" cy="257.294" r="3"/>
<circle clip-path="url(#clip8002)" style="fill:#000000; stroke:none; fill-opacity:1" cx="305.263" cy="271.162" r="3"/>
<circle clip-path="url(#clip8002)" style="fill:#000000; stroke:none; fill-opacity:1" cx="301.663" cy="271.418" r="3"/>
<circle clip-path="url(#clip8002)" style="fill:#000000; stroke:none; fill-opacity:1" cx="302.059" cy="261.197" r="3"/>
<circle clip-path="url(#clip8002)" style="fill:#000000; stroke:none; fill-opacity:1" cx="299.187" cy="260.503" r="3"/>
<circle clip-path="url(#clip8002)" style="fill:#000000; stroke:none; fill-opacity:1" cx="294.64" cy="278.947" r="3"/>
<circle clip-path="url(#clip8002)" style="fill:#000000; stroke:none; fill-opacity:1" cx="292.622" cy="275.597" r="3"/>
<circle clip-path="url(#clip8002)" style="fill:#000000; stroke:none; fill-opacity:1" cx="295.108" cy="286.208" r="3"/>
<circle clip-path="url(#clip8002)" style="fill:#000000; stroke:none; fill-opacity:1" cx="287.19" cy="287.049" r="3"/>
<circle clip-path="url(#clip8002)" style="fill:#000000; stroke:none; fill-opacity:1" cx="286.357" cy="284.943" r="3"/>
<circle clip-path="url(#clip8002)" style="fill:#000000; stroke:none; fill-opacity:1" cx="287.359" cy="267.941" r="3"/>
<circle clip-path="url(#clip8002)" style="fill:#000000; stroke:none; fill-opacity:1" cx="287.556" cy="274.662" r="3"/>
<circle clip-path="url(#clip8002)" style="fill:#000000; stroke:none; fill-opacity:1" cx="287.633" cy="274.619" r="3"/>
<circle clip-path="url(#clip8002)" style="fill:#000000; stroke:none; fill-opacity:1" cx="288.578" cy="292.327" r="3"/>
<circle clip-path="url(#clip8002)" style="fill:#000000; stroke:none; fill-opacity:1" cx="287.199" cy="275.802" r="3"/>
<circle clip-path="url(#clip8002)" style="fill:#000000; stroke:none; fill-opacity:1" cx="282.47" cy="275.603" r="3"/>
<circle clip-path="url(#clip8002)" style="fill:#000000; stroke:none; fill-opacity:1" cx="277.27" cy="283.048" r="3"/>
<circle clip-path="url(#clip8002)" style="fill:#000000; stroke:none; fill-opacity:1" cx="275.652" cy="289.498" r="3"/>
<circle clip-path="url(#clip8002)" style="fill:#000000; stroke:none; fill-opacity:1" cx="274.368" cy="286.041" r="3"/>
<circle clip-path="url(#clip8002)" style="fill:#000000; stroke:none; fill-opacity:1" cx="271.736" cy="274.957" r="3"/>
<circle clip-path="url(#clip8002)" style="fill:#000000; stroke:none; fill-opacity:1" cx="281.798" cy="246.778" r="3"/>
<circle clip-path="url(#clip8002)" style="fill:#000000; stroke:none; fill-opacity:1" cx="274.308" cy="251.326" r="3"/>
<circle clip-path="url(#clip8002)" style="fill:#000000; stroke:none; fill-opacity:1" cx="274.307" cy="251.326" r="3"/>
<circle clip-path="url(#clip8002)" style="fill:#000000; stroke:none; fill-opacity:1" cx="274.292" cy="251.432" r="3"/>
<circle clip-path="url(#clip8002)" style="fill:#000000; stroke:none; fill-opacity:1" cx="274.564" cy="250.922" r="3"/>
<circle clip-path="url(#clip8002)" style="fill:#000000; stroke:none; fill-opacity:1" cx="274.909" cy="253.992" r="3"/>
<circle clip-path="url(#clip8002)" style="fill:#000000; stroke:none; fill-opacity:1" cx="275.741" cy="254.734" r="3"/>
<circle clip-path="url(#clip8002)" style="fill:#000000; stroke:none; fill-opacity:1" cx="275.469" cy="253.464" r="3"/>
<circle clip-path="url(#clip8002)" style="fill:#000000; stroke:none; fill-opacity:1" cx="274.027" cy="255.108" r="3"/>
<circle clip-path="url(#clip8002)" style="fill:#000000; stroke:none; fill-opacity:1" cx="273.071" cy="255.789" r="3"/>
<circle clip-path="url(#clip8002)" style="fill:#000000; stroke:none; fill-opacity:1" cx="269.585" cy="263.276" r="3"/>
<circle clip-path="url(#clip8002)" style="fill:#000000; stroke:none; fill-opacity:1" cx="271.798" cy="274.998" r="3"/>
<circle clip-path="url(#clip8002)" style="fill:#000000; stroke:none; fill-opacity:1" cx="263.704" cy="274.336" r="3"/>
<circle clip-path="url(#clip8002)" style="fill:#000000; stroke:none; fill-opacity:1" cx="257.041" cy="318.154" r="3"/>
<circle clip-path="url(#clip8002)" style="fill:#000000; stroke:none; fill-opacity:1" cx="255.068" cy="330.606" r="3"/>
<circle clip-path="url(#clip8002)" style="fill:#000000; stroke:none; fill-opacity:1" cx="259.766" cy="320.817" r="3"/>
<circle clip-path="url(#clip8002)" style="fill:#000000; stroke:none; fill-opacity:1" cx="254.845" cy="318.312" r="3"/>
<circle clip-path="url(#clip8002)" style="fill:#000000; stroke:none; fill-opacity:1" cx="253.314" cy="317.503" r="3"/>
<circle clip-path="url(#clip8002)" style="fill:#000000; stroke:none; fill-opacity:1" cx="253.22" cy="317.069" r="3"/>
<circle clip-path="url(#clip8002)" style="fill:#000000; stroke:none; fill-opacity:1" cx="258.47" cy="322.832" r="3"/>
<circle clip-path="url(#clip8002)" style="fill:#000000; stroke:none; fill-opacity:1" cx="257.485" cy="317.352" r="3"/>
<circle clip-path="url(#clip8002)" style="fill:#000000; stroke:none; fill-opacity:1" cx="257.484" cy="317.359" r="3"/>
<circle clip-path="url(#clip8002)" style="fill:#000000; stroke:none; fill-opacity:1" cx="257.084" cy="318.135" r="3"/>
<circle clip-path="url(#clip8002)" style="fill:#000000; stroke:none; fill-opacity:1" cx="257.913" cy="317.981" r="3"/>
<circle clip-path="url(#clip8002)" style="fill:#000000; stroke:none; fill-opacity:1" cx="252.74" cy="315.451" r="3"/>
<circle clip-path="url(#clip8002)" style="fill:#000000; stroke:none; fill-opacity:1" cx="245.405" cy="328.25" r="3"/>
<circle clip-path="url(#clip8002)" style="fill:#000000; stroke:none; fill-opacity:1" cx="245.249" cy="331.538" r="3"/>
<circle clip-path="url(#clip8002)" style="fill:#000000; stroke:none; fill-opacity:1" cx="244.685" cy="329.582" r="3"/>
<circle clip-path="url(#clip8002)" style="fill:#000000; stroke:none; fill-opacity:1" cx="243.568" cy="318.983" r="3"/>
<circle clip-path="url(#clip8002)" style="fill:#000000; stroke:none; fill-opacity:1" cx="239.198" cy="322.515" r="3"/>
<circle clip-path="url(#clip8002)" style="fill:#000000; stroke:none; fill-opacity:1" cx="239.375" cy="349.075" r="3"/>
<circle clip-path="url(#clip8002)" style="fill:#000000; stroke:none; fill-opacity:1" cx="226.867" cy="350.575" r="3"/>
<circle clip-path="url(#clip8002)" style="fill:#000000; stroke:none; fill-opacity:1" cx="166.794" cy="175.994" r="3"/>
<circle clip-path="url(#clip8002)" style="fill:#000000; stroke:none; fill-opacity:1" cx="160.469" cy="183.663" r="3"/>
<circle clip-path="url(#clip8002)" style="fill:#000000; stroke:none; fill-opacity:1" cx="160.122" cy="183.946" r="3"/>
<circle clip-path="url(#clip8002)" style="fill:#000000; stroke:none; fill-opacity:1" cx="160.475" cy="183.664" r="3"/>
<circle clip-path="url(#clip8002)" style="fill:#000000; stroke:none; fill-opacity:1" cx="160.451" cy="183.573" r="3"/>
<circle clip-path="url(#clip8002)" style="fill:#000000; stroke:none; fill-opacity:1" cx="139.717" cy="164.901" r="3"/>
<circle clip-path="url(#clip8002)" style="fill:#000000; stroke:none; fill-opacity:1" cx="140.318" cy="165.895" r="3"/>
<circle clip-path="url(#clip8002)" style="fill:#000000; stroke:none; fill-opacity:1" cx="107.522" cy="129.097" r="3"/>
<circle clip-path="url(#clip8002)" style="fill:#000000; stroke:none; fill-opacity:1" cx="101.498" cy="135.248" r="3"/>
<circle clip-path="url(#clip8002)" style="fill:#000000; stroke:none; fill-opacity:1" cx="99.8998" cy="132.589" r="3"/>
<circle clip-path="url(#clip8002)" style="fill:#000000; stroke:none; fill-opacity:1" cx="89.1837" cy="137.996" r="3"/>
<circle clip-path="url(#clip8002)" style="fill:#000000; stroke:none; fill-opacity:1" cx="93.7032" cy="121.99" r="3"/>
<circle clip-path="url(#clip8002)" style="fill:#000000; stroke:none; fill-opacity:1" cx="80.3851" cy="133.206" r="3"/>
<circle clip-path="url(#clip8002)" style="fill:#000000; stroke:none; fill-opacity:1" cx="61.4526" cy="40.7896" r="3"/>
<circle clip-path="url(#clip8002)" style="fill:#000000; stroke:none; fill-opacity:1" cx="115.289" cy="85.1141" r="3"/>
<circle clip-path="url(#clip8002)" style="fill:#000000; stroke:none; fill-opacity:1" cx="181.106" cy="44.0389" r="3"/>
<circle clip-path="url(#clip8002)" style="fill:#000000; stroke:none; fill-opacity:1" cx="181.106" cy="44.0394" r="3"/>
<circle clip-path="url(#clip8002)" style="fill:#000000; stroke:none; fill-opacity:1" cx="181.106" cy="44.0394" r="3"/>
<circle clip-path="url(#clip8002)" style="fill:#000000; stroke:none; fill-opacity:1" cx="182.759" cy="45.2927" r="3"/>
<circle clip-path="url(#clip8002)" style="fill:#000000; stroke:none; fill-opacity:1" cx="182.759" cy="45.3008" r="3"/>
<circle clip-path="url(#clip8002)" style="fill:#000000; stroke:none; fill-opacity:1" cx="182.76" cy="45.3035" r="3"/>
<circle clip-path="url(#clip8002)" style="fill:#000000; stroke:none; fill-opacity:1" cx="183.965" cy="46.3213" r="3"/>
<circle clip-path="url(#clip8002)" style="fill:#000000; stroke:none; fill-opacity:1" cx="213.488" cy="228.25" r="3"/>
<circle clip-path="url(#clip8002)" style="fill:#000000; stroke:none; fill-opacity:1" cx="217.34" cy="233.348" r="3"/>
<circle clip-path="url(#clip8002)" style="fill:#000000; stroke:none; fill-opacity:1" cx="217.705" cy="241.067" r="3"/>
<circle clip-path="url(#clip8002)" style="fill:#000000; stroke:none; fill-opacity:1" cx="243.988" cy="243.166" r="3"/>
<circle clip-path="url(#clip8002)" style="fill:#000000; stroke:none; fill-opacity:1" cx="245.439" cy="279.407" r="3"/>
<circle clip-path="url(#clip8002)" style="fill:#000000; stroke:none; fill-opacity:1" cx="245.538" cy="281.04" r="3"/>
<circle clip-path="url(#clip8002)" style="fill:#000000; stroke:none; fill-opacity:1" cx="259.984" cy="276.083" r="3"/>
<circle clip-path="url(#clip8002)" style="fill:#000000; stroke:none; fill-opacity:1" cx="263.059" cy="271.802" r="3"/>
<circle clip-path="url(#clip8002)" style="fill:#000000; stroke:none; fill-opacity:1" cx="259.735" cy="263.785" r="3"/>
<circle clip-path="url(#clip8002)" style="fill:#000000; stroke:none; fill-opacity:1" cx="258.583" cy="276.457" r="3"/>
<circle clip-path="url(#clip8002)" style="fill:#000000; stroke:none; fill-opacity:1" cx="252.574" cy="287.058" r="3"/>
<circle clip-path="url(#clip8002)" style="fill:#000000; stroke:none; fill-opacity:1" cx="257.235" cy="304.221" r="3"/>
<circle clip-path="url(#clip8002)" style="fill:#000000; stroke:none; fill-opacity:1" cx="257.475" cy="317.283" r="3"/>
<circle clip-path="url(#clip8002)" style="fill:#000000; stroke:none; fill-opacity:1" cx="255.099" cy="317.197" r="3"/>
<circle clip-path="url(#clip8002)" style="fill:#000000; stroke:none; fill-opacity:1" cx="260.537" cy="323.35" r="3"/>
<circle clip-path="url(#clip8002)" style="fill:#000000; stroke:none; fill-opacity:1" cx="259.506" cy="321.211" r="3"/>
<circle clip-path="url(#clip8002)" style="fill:#000000; stroke:none; fill-opacity:1" cx="259.789" cy="320.826" r="3"/>
<circle clip-path="url(#clip8002)" style="fill:#000000; stroke:none; fill-opacity:1" cx="263.947" cy="307.983" r="3"/>
<circle clip-path="url(#clip8002)" style="fill:#000000; stroke:none; fill-opacity:1" cx="261.965" cy="313.198" r="3"/>
<circle clip-path="url(#clip8002)" style="fill:#000000; stroke:none; fill-opacity:1" cx="268.765" cy="282.806" r="3"/>
<circle clip-path="url(#clip8002)" style="fill:#000000; stroke:none; fill-opacity:1" cx="270.086" cy="285.856" r="3"/>
<circle clip-path="url(#clip8002)" style="fill:#000000; stroke:none; fill-opacity:1" cx="268.044" cy="281.854" r="3"/>
<circle clip-path="url(#clip8002)" style="fill:#000000; stroke:none; fill-opacity:1" cx="267.049" cy="305.597" r="3"/>
<circle clip-path="url(#clip8002)" style="fill:#000000; stroke:none; fill-opacity:1" cx="267.173" cy="305.62" r="3"/>
<circle clip-path="url(#clip8002)" style="fill:#000000; stroke:none; fill-opacity:1" cx="268.875" cy="282.816" r="3"/>
<circle clip-path="url(#clip8002)" style="fill:#000000; stroke:none; fill-opacity:1" cx="263.665" cy="247.707" r="3"/>
<circle clip-path="url(#clip8002)" style="fill:#000000; stroke:none; fill-opacity:1" cx="264.303" cy="234.129" r="3"/>
<circle clip-path="url(#clip8002)" style="fill:#000000; stroke:none; fill-opacity:1" cx="261.918" cy="194.304" r="3"/>
<circle clip-path="url(#clip8002)" style="fill:#000000; stroke:none; fill-opacity:1" cx="260.238" cy="198.779" r="3"/>
<circle clip-path="url(#clip8002)" style="fill:#000000; stroke:none; fill-opacity:1" cx="259.659" cy="191.256" r="3"/>
<circle clip-path="url(#clip8002)" style="fill:#000000; stroke:none; fill-opacity:1" cx="228.942" cy="199.197" r="3"/>
<circle clip-path="url(#clip8002)" style="fill:#000000; stroke:none; fill-opacity:1" cx="225.027" cy="232.924" r="3"/>
<circle clip-path="url(#clip8002)" style="fill:#000000; stroke:none; fill-opacity:1" cx="217.046" cy="219.059" r="3"/>
<circle clip-path="url(#clip8002)" style="fill:#000000; stroke:none; fill-opacity:1" cx="219.103" cy="233.007" r="3"/>
<circle clip-path="url(#clip8002)" style="fill:#000000; stroke:none; fill-opacity:1" cx="217.357" cy="233.37" r="3"/>
<circle clip-path="url(#clip8002)" style="fill:#000000; stroke:none; fill-opacity:1" cx="212.664" cy="221.695" r="3"/>
<circle clip-path="url(#clip8002)" style="fill:#000000; stroke:none; fill-opacity:1" cx="213.174" cy="222.396" r="3"/>
<circle clip-path="url(#clip8002)" style="fill:#000000; stroke:none; fill-opacity:1" cx="213.544" cy="228.26" r="3"/>
<circle clip-path="url(#clip8002)" style="fill:#000000; stroke:none; fill-opacity:1" cx="213.476" cy="228.235" r="3"/>
<circle clip-path="url(#clip8002)" style="fill:#000000; stroke:none; fill-opacity:1" cx="211.63" cy="228.218" r="3"/>
<circle clip-path="url(#clip8002)" style="fill:#000000; stroke:none; fill-opacity:1" cx="217.698" cy="233.498" r="3"/>
<circle clip-path="url(#clip8002)" style="fill:#000000; stroke:none; fill-opacity:1" cx="217.34" cy="233.349" r="3"/>
<circle clip-path="url(#clip8002)" style="fill:#000000; stroke:none; fill-opacity:1" cx="217.733" cy="241.047" r="3"/>
<circle clip-path="url(#clip8002)" style="fill:#000000; stroke:none; fill-opacity:1" cx="242.141" cy="266.229" r="3"/>
<circle clip-path="url(#clip8002)" style="fill:#000000; stroke:none; fill-opacity:1" cx="245.146" cy="264.866" r="3"/>
<circle clip-path="url(#clip8002)" style="fill:#000000; stroke:none; fill-opacity:1" cx="255.405" cy="260.766" r="3"/>
<circle clip-path="url(#clip8002)" style="fill:#000000; stroke:none; fill-opacity:1" cx="299.634" cy="258.715" r="3"/>
<circle clip-path="url(#clip8002)" style="fill:#000000; stroke:none; fill-opacity:1" cx="302.115" cy="260.992" r="3"/>
<circle clip-path="url(#clip8002)" style="fill:#000000; stroke:none; fill-opacity:1" cx="305.121" cy="238.635" r="3"/>
<circle clip-path="url(#clip8002)" style="fill:#000000; stroke:none; fill-opacity:1" cx="308.202" cy="260.823" r="3"/>
<circle clip-path="url(#clip8002)" style="fill:#000000; stroke:none; fill-opacity:1" cx="308.261" cy="260.379" r="3"/>
<circle clip-path="url(#clip8002)" style="fill:#000000; stroke:none; fill-opacity:1" cx="315.353" cy="268.455" r="3"/>
<circle clip-path="url(#clip8002)" style="fill:#000000; stroke:none; fill-opacity:1" cx="315.324" cy="268.466" r="3"/>
<circle clip-path="url(#clip8002)" style="fill:#000000; stroke:none; fill-opacity:1" cx="326.137" cy="255.845" r="3"/>
</svg>
