<?xml version="1.0" encoding="utf-8"?>
<svg xmlns="http://www.w3.org/2000/svg" xmlns:xlink="http://www.w3.org/1999/xlink" width="576" height="384" viewBox="0 0 576 384">
<defs>
  <clipPath id="clip9800">
    <rect x="0" y="0" width="576" height="384"/>
  </clipPath>
</defs>
<polygon clip-path="url(#clip9800)" points="
0,384 576,384 576,0 0,0 
  " fill="#ffffff" fill-opacity="1"/>
<defs>
  <clipPath id="clip9801">
    <rect x="115" y="0" width="404" height="384"/>
  </clipPath>
</defs>
<polygon clip-path="url(#clip9800)" points="
39.1651,359.869 556.315,359.869 556.315,11.811 39.1651,11.811 
  " fill="#ffffff" fill-opacity="1"/>
<defs>
  <clipPath id="clip9802">
    <rect x="39" y="11" width="518" height="349"/>
  </clipPath>
</defs>
<polyline clip-path="url(#clip9802)" style="stroke:#000000; stroke-width:0.5; stroke-opacity:0.1; fill:none" points="
  48.8733,359.869 48.8733,11.811 
  "/>
<polyline clip-path="url(#clip9802)" style="stroke:#000000; stroke-width:0.5; stroke-opacity:0.1; fill:none" points="
  172.075,359.869 172.075,11.811 
  "/>
<polyline clip-path="url(#clip9802)" style="stroke:#000000; stroke-width:0.5; stroke-opacity:0.1; fill:none" points="
  295.276,359.869 295.276,11.811 
  "/>
<polyline clip-path="url(#clip9802)" style="stroke:#000000; stroke-width:0.5; stroke-opacity:0.1; fill:none" points="
  418.477,359.869 418.477,11.811 
  "/>
<polyline clip-path="url(#clip9802)" style="stroke:#000000; stroke-width:0.5; stroke-opacity:0.1; fill:none" points="
  541.679,359.869 541.679,11.811 
  "/>
<polyline clip-path="url(#clip9802)" style="stroke:#000000; stroke-width:0.5; stroke-opacity:0.1; fill:none" points="
  39.1651,350.803 556.315,350.803 
  "/>
<polyline clip-path="url(#clip9802)" style="stroke:#000000; stroke-width:0.5; stroke-opacity:0.1; fill:none" points="
  39.1651,268.46 556.315,268.46 
  "/>
<polyline clip-path="url(#clip9802)" style="stroke:#000000; stroke-width:0.5; stroke-opacity:0.1; fill:none" points="
  39.1651,186.117 556.315,186.117 
  "/>
<polyline clip-path="url(#clip9802)" style="stroke:#000000; stroke-width:0.5; stroke-opacity:0.1; fill:none" points="
  39.1651,103.775 556.315,103.775 
  "/>
<polyline clip-path="url(#clip9802)" style="stroke:#000000; stroke-width:0.5; stroke-opacity:0.1; fill:none" points="
  39.1651,21.4321 556.315,21.4321 
  "/>
<polyline clip-path="url(#clip9800)" style="stroke:#000000; stroke-width:1; stroke-opacity:1; fill:none" points="
  39.1651,359.869 556.315,359.869 
  "/>
<polyline clip-path="url(#clip9800)" style="stroke:#000000; stroke-width:1; stroke-opacity:1; fill:none" points="
  39.1651,359.869 39.1651,11.811 
  "/>
<polyline clip-path="url(#clip9800)" style="stroke:#000000; stroke-width:1; stroke-opacity:1; fill:none" points="
  48.8733,359.869 48.8733,354.648 
  "/>
<polyline clip-path="url(#clip9800)" style="stroke:#000000; stroke-width:1; stroke-opacity:1; fill:none" points="
  172.075,359.869 172.075,354.648 
  "/>
<polyline clip-path="url(#clip9800)" style="stroke:#000000; stroke-width:1; stroke-opacity:1; fill:none" points="
  295.276,359.869 295.276,354.648 
  "/>
<polyline clip-path="url(#clip9800)" style="stroke:#000000; stroke-width:1; stroke-opacity:1; fill:none" points="
  418.477,359.869 418.477,354.648 
  "/>
<polyline clip-path="url(#clip9800)" style="stroke:#000000; stroke-width:1; stroke-opacity:1; fill:none" points="
  541.679,359.869 541.679,354.648 
  "/>
<polyline clip-path="url(#clip9800)" style="stroke:#000000; stroke-width:1; stroke-opacity:1; fill:none" points="
  39.1651,350.803 46.9223,350.803 
  "/>
<polyline clip-path="url(#clip9800)" style="stroke:#000000; stroke-width:1; stroke-opacity:1; fill:none" points="
  39.1651,268.46 46.9223,268.46 
  "/>
<polyline clip-path="url(#clip9800)" style="stroke:#000000; stroke-width:1; stroke-opacity:1; fill:none" points="
  39.1651,186.117 46.9223,186.117 
  "/>
<polyline clip-path="url(#clip9800)" style="stroke:#000000; stroke-width:1; stroke-opacity:1; fill:none" points="
  39.1651,103.775 46.9223,103.775 
  "/>
<polyline clip-path="url(#clip9800)" style="stroke:#000000; stroke-width:1; stroke-opacity:1; fill:none" points="
  39.1651,21.4321 46.9223,21.4321 
  "/>
<g clip-path="url(#clip9800)">
<text style="fill:#000000; fill-opacity:1; font-family:Arial,Helvetica Neue,Helvetica,sans-serif; font-size:12; text-anchor:middle;" transform="rotate(0, 48.8733, 373.549)" x="48.8733" y="373.549">0</text>
</g>
<g clip-path="url(#clip9800)">
<text style="fill:#000000; fill-opacity:1; font-family:Arial,Helvetica Neue,Helvetica,sans-serif; font-size:12; text-anchor:middle;" transform="rotate(0, 172.075, 373.549)" x="172.075" y="373.549">25</text>
</g>
<g clip-path="url(#clip9800)">
<text style="fill:#000000; fill-opacity:1; font-family:Arial,Helvetica Neue,Helvetica,sans-serif; font-size:12; text-anchor:middle;" transform="rotate(0, 295.276, 373.549)" x="295.276" y="373.549">50</text>
</g>
<g clip-path="url(#clip9800)">
<text style="fill:#000000; fill-opacity:1; font-family:Arial,Helvetica Neue,Helvetica,sans-serif; font-size:12; text-anchor:middle;" transform="rotate(0, 418.477, 373.549)" x="418.477" y="373.549">75</text>
</g>
<g clip-path="url(#clip9800)">
<text style="fill:#000000; fill-opacity:1; font-family:Arial,Helvetica Neue,Helvetica,sans-serif; font-size:12; text-anchor:middle;" transform="rotate(0, 541.679, 373.549)" x="541.679" y="373.549">100</text>
</g>
<g clip-path="url(#clip9800)">
<text style="fill:#000000; fill-opacity:1; font-family:Arial,Helvetica Neue,Helvetica,sans-serif; font-size:12; text-anchor:end;" transform="rotate(0, 33.4051, 355.303)" x="33.4051" y="355.303">0.00</text>
</g>
<g clip-path="url(#clip9800)">
<text style="fill:#000000; fill-opacity:1; font-family:Arial,Helvetica Neue,Helvetica,sans-serif; font-size:12; text-anchor:end;" transform="rotate(0, 33.4051, 272.96)" x="33.4051" y="272.96">0.25</text>
</g>
<g clip-path="url(#clip9800)">
<text style="fill:#000000; fill-opacity:1; font-family:Arial,Helvetica Neue,Helvetica,sans-serif; font-size:12; text-anchor:end;" transform="rotate(0, 33.4051, 190.617)" x="33.4051" y="190.617">0.50</text>
</g>
<g clip-path="url(#clip9800)">
<text style="fill:#000000; fill-opacity:1; font-family:Arial,Helvetica Neue,Helvetica,sans-serif; font-size:12; text-anchor:end;" transform="rotate(0, 33.4051, 108.275)" x="33.4051" y="108.275">0.75</text>
</g>
<g clip-path="url(#clip9800)">
<text style="fill:#000000; fill-opacity:1; font-family:Arial,Helvetica Neue,Helvetica,sans-serif; font-size:12; text-anchor:end;" transform="rotate(0, 33.4051, 25.9321)" x="33.4051" y="25.9321">1.00</text>
</g>
<circle clip-path="url(#clip9802)" style="fill:#000000; stroke:none; fill-opacity:1" cx="53.8014" cy="106.905" r="4"/>
<circle clip-path="url(#clip9802)" style="fill:#009af9; stroke:none; fill-opacity:1" cx="53.8014" cy="106.905" r="3"/>
<circle clip-path="url(#clip9802)" style="fill:#000000; stroke:none; fill-opacity:1" cx="58.7294" cy="279.613" r="4"/>
<circle clip-path="url(#clip9802)" style="fill:#009af9; stroke:none; fill-opacity:1" cx="58.7294" cy="279.613" r="3"/>
<circle clip-path="url(#clip9802)" style="fill:#000000; stroke:none; fill-opacity:1" cx="63.6575" cy="327.557" r="4"/>
<circle clip-path="url(#clip9802)" style="fill:#009af9; stroke:none; fill-opacity:1" cx="63.6575" cy="327.557" r="3"/>
<circle clip-path="url(#clip9802)" style="fill:#000000; stroke:none; fill-opacity:1" cx="68.5856" cy="94.5717" r="4"/>
<circle clip-path="url(#clip9802)" style="fill:#009af9; stroke:none; fill-opacity:1" cx="68.5856" cy="94.5717" r="3"/>
<circle clip-path="url(#clip9802)" style="fill:#000000; stroke:none; fill-opacity:1" cx="73.5136" cy="27.4274" r="4"/>
<circle clip-path="url(#clip9802)" style="fill:#009af9; stroke:none; fill-opacity:1" cx="73.5136" cy="27.4274" r="3"/>
<circle clip-path="url(#clip9802)" style="fill:#000000; stroke:none; fill-opacity:1" cx="78.4417" cy="235.387" r="4"/>
<circle clip-path="url(#clip9802)" style="fill:#009af9; stroke:none; fill-opacity:1" cx="78.4417" cy="235.387" r="3"/>
<circle clip-path="url(#clip9802)" style="fill:#000000; stroke:none; fill-opacity:1" cx="83.3697" cy="316.202" r="4"/>
<circle clip-path="url(#clip9802)" style="fill:#009af9; stroke:none; fill-opacity:1" cx="83.3697" cy="316.202" r="3"/>
<circle clip-path="url(#clip9802)" style="fill:#000000; stroke:none; fill-opacity:1" cx="88.2978" cy="289.765" r="4"/>
<circle clip-path="url(#clip9802)" style="fill:#009af9; stroke:none; fill-opacity:1" cx="88.2978" cy="289.765" r="3"/>
<circle clip-path="url(#clip9802)" style="fill:#000000; stroke:none; fill-opacity:1" cx="93.2258" cy="108.391" r="4"/>
<circle clip-path="url(#clip9802)" style="fill:#009af9; stroke:none; fill-opacity:1" cx="93.2258" cy="108.391" r="3"/>
<circle clip-path="url(#clip9802)" style="fill:#000000; stroke:none; fill-opacity:1" cx="98.1539" cy="266.38" r="4"/>
<circle clip-path="url(#clip9802)" style="fill:#009af9; stroke:none; fill-opacity:1" cx="98.1539" cy="266.38" r="3"/>
<circle clip-path="url(#clip9802)" style="fill:#000000; stroke:none; fill-opacity:1" cx="103.082" cy="42.5409" r="4"/>
<circle clip-path="url(#clip9802)" style="fill:#009af9; stroke:none; fill-opacity:1" cx="103.082" cy="42.5409" r="3"/>
<circle clip-path="url(#clip9802)" style="fill:#000000; stroke:none; fill-opacity:1" cx="108.01" cy="192.04" r="4"/>
<circle clip-path="url(#clip9802)" style="fill:#009af9; stroke:none; fill-opacity:1" cx="108.01" cy="192.04" r="3"/>
<circle clip-path="url(#clip9802)" style="fill:#000000; stroke:none; fill-opacity:1" cx="112.938" cy="69.6336" r="4"/>
<circle clip-path="url(#clip9802)" style="fill:#009af9; stroke:none; fill-opacity:1" cx="112.938" cy="69.6336" r="3"/>
<circle clip-path="url(#clip9802)" style="fill:#000000; stroke:none; fill-opacity:1" cx="117.866" cy="286.22" r="4"/>
<circle clip-path="url(#clip9802)" style="fill:#009af9; stroke:none; fill-opacity:1" cx="117.866" cy="286.22" r="3"/>
<circle clip-path="url(#clip9802)" style="fill:#000000; stroke:none; fill-opacity:1" cx="122.794" cy="44.5858" r="4"/>
<circle clip-path="url(#clip9802)" style="fill:#009af9; stroke:none; fill-opacity:1" cx="122.794" cy="44.5858" r="3"/>
<circle clip-path="url(#clip9802)" style="fill:#000000; stroke:none; fill-opacity:1" cx="127.722" cy="108.152" r="4"/>
<circle clip-path="url(#clip9802)" style="fill:#009af9; stroke:none; fill-opacity:1" cx="127.722" cy="108.152" r="3"/>
<circle clip-path="url(#clip9802)" style="fill:#000000; stroke:none; fill-opacity:1" cx="132.65" cy="333.029" r="4"/>
<circle clip-path="url(#clip9802)" style="fill:#009af9; stroke:none; fill-opacity:1" cx="132.65" cy="333.029" r="3"/>
<circle clip-path="url(#clip9802)" style="fill:#000000; stroke:none; fill-opacity:1" cx="137.578" cy="108.059" r="4"/>
<circle clip-path="url(#clip9802)" style="fill:#009af9; stroke:none; fill-opacity:1" cx="137.578" cy="108.059" r="3"/>
<circle clip-path="url(#clip9802)" style="fill:#000000; stroke:none; fill-opacity:1" cx="142.506" cy="274.378" r="4"/>
<circle clip-path="url(#clip9802)" style="fill:#009af9; stroke:none; fill-opacity:1" cx="142.506" cy="274.378" r="3"/>
<circle clip-path="url(#clip9802)" style="fill:#000000; stroke:none; fill-opacity:1" cx="147.434" cy="271.782" r="4"/>
<circle clip-path="url(#clip9802)" style="fill:#009af9; stroke:none; fill-opacity:1" cx="147.434" cy="271.782" r="3"/>
<circle clip-path="url(#clip9802)" style="fill:#000000; stroke:none; fill-opacity:1" cx="152.362" cy="234.142" r="4"/>
<circle clip-path="url(#clip9802)" style="fill:#009af9; stroke:none; fill-opacity:1" cx="152.362" cy="234.142" r="3"/>
<circle clip-path="url(#clip9802)" style="fill:#000000; stroke:none; fill-opacity:1" cx="157.291" cy="267.182" r="4"/>
<circle clip-path="url(#clip9802)" style="fill:#009af9; stroke:none; fill-opacity:1" cx="157.291" cy="267.182" r="3"/>
<circle clip-path="url(#clip9802)" style="fill:#000000; stroke:none; fill-opacity:1" cx="162.219" cy="280.164" r="4"/>
<circle clip-path="url(#clip9802)" style="fill:#009af9; stroke:none; fill-opacity:1" cx="162.219" cy="280.164" r="3"/>
<circle clip-path="url(#clip9802)" style="fill:#000000; stroke:none; fill-opacity:1" cx="167.147" cy="120.484" r="4"/>
<circle clip-path="url(#clip9802)" style="fill:#009af9; stroke:none; fill-opacity:1" cx="167.147" cy="120.484" r="3"/>
<circle clip-path="url(#clip9802)" style="fill:#000000; stroke:none; fill-opacity:1" cx="172.075" cy="253.25" r="4"/>
<circle clip-path="url(#clip9802)" style="fill:#009af9; stroke:none; fill-opacity:1" cx="172.075" cy="253.25" r="3"/>
<circle clip-path="url(#clip9802)" style="fill:#000000; stroke:none; fill-opacity:1" cx="177.003" cy="216.888" r="4"/>
<circle clip-path="url(#clip9802)" style="fill:#009af9; stroke:none; fill-opacity:1" cx="177.003" cy="216.888" r="3"/>
<circle clip-path="url(#clip9802)" style="fill:#000000; stroke:none; fill-opacity:1" cx="181.931" cy="209.101" r="4"/>
<circle clip-path="url(#clip9802)" style="fill:#009af9; stroke:none; fill-opacity:1" cx="181.931" cy="209.101" r="3"/>
<circle clip-path="url(#clip9802)" style="fill:#000000; stroke:none; fill-opacity:1" cx="186.859" cy="321.73" r="4"/>
<circle clip-path="url(#clip9802)" style="fill:#009af9; stroke:none; fill-opacity:1" cx="186.859" cy="321.73" r="3"/>
<circle clip-path="url(#clip9802)" style="fill:#000000; stroke:none; fill-opacity:1" cx="191.787" cy="71.7379" r="4"/>
<circle clip-path="url(#clip9802)" style="fill:#009af9; stroke:none; fill-opacity:1" cx="191.787" cy="71.7379" r="3"/>
<circle clip-path="url(#clip9802)" style="fill:#000000; stroke:none; fill-opacity:1" cx="196.715" cy="244.477" r="4"/>
<circle clip-path="url(#clip9802)" style="fill:#009af9; stroke:none; fill-opacity:1" cx="196.715" cy="244.477" r="3"/>
<circle clip-path="url(#clip9802)" style="fill:#000000; stroke:none; fill-opacity:1" cx="201.643" cy="165.15" r="4"/>
<circle clip-path="url(#clip9802)" style="fill:#009af9; stroke:none; fill-opacity:1" cx="201.643" cy="165.15" r="3"/>
<circle clip-path="url(#clip9802)" style="fill:#000000; stroke:none; fill-opacity:1" cx="206.571" cy="223.482" r="4"/>
<circle clip-path="url(#clip9802)" style="fill:#009af9; stroke:none; fill-opacity:1" cx="206.571" cy="223.482" r="3"/>
<circle clip-path="url(#clip9802)" style="fill:#000000; stroke:none; fill-opacity:1" cx="211.499" cy="95.3156" r="4"/>
<circle clip-path="url(#clip9802)" style="fill:#009af9; stroke:none; fill-opacity:1" cx="211.499" cy="95.3156" r="3"/>
<circle clip-path="url(#clip9802)" style="fill:#000000; stroke:none; fill-opacity:1" cx="216.427" cy="271.74" r="4"/>
<circle clip-path="url(#clip9802)" style="fill:#009af9; stroke:none; fill-opacity:1" cx="216.427" cy="271.74" r="3"/>
<circle clip-path="url(#clip9802)" style="fill:#000000; stroke:none; fill-opacity:1" cx="221.355" cy="256.11" r="4"/>
<circle clip-path="url(#clip9802)" style="fill:#009af9; stroke:none; fill-opacity:1" cx="221.355" cy="256.11" r="3"/>
<circle clip-path="url(#clip9802)" style="fill:#000000; stroke:none; fill-opacity:1" cx="226.283" cy="306.331" r="4"/>
<circle clip-path="url(#clip9802)" style="fill:#009af9; stroke:none; fill-opacity:1" cx="226.283" cy="306.331" r="3"/>
<circle clip-path="url(#clip9802)" style="fill:#000000; stroke:none; fill-opacity:1" cx="231.211" cy="125.884" r="4"/>
<circle clip-path="url(#clip9802)" style="fill:#009af9; stroke:none; fill-opacity:1" cx="231.211" cy="125.884" r="3"/>
<circle clip-path="url(#clip9802)" style="fill:#000000; stroke:none; fill-opacity:1" cx="236.139" cy="337.884" r="4"/>
<circle clip-path="url(#clip9802)" style="fill:#009af9; stroke:none; fill-opacity:1" cx="236.139" cy="337.884" r="3"/>
<circle clip-path="url(#clip9802)" style="fill:#000000; stroke:none; fill-opacity:1" cx="241.067" cy="350.018" r="4"/>
<circle clip-path="url(#clip9802)" style="fill:#009af9; stroke:none; fill-opacity:1" cx="241.067" cy="350.018" r="3"/>
<circle clip-path="url(#clip9802)" style="fill:#000000; stroke:none; fill-opacity:1" cx="245.995" cy="348.599" r="4"/>
<circle clip-path="url(#clip9802)" style="fill:#009af9; stroke:none; fill-opacity:1" cx="245.995" cy="348.599" r="3"/>
<circle clip-path="url(#clip9802)" style="fill:#000000; stroke:none; fill-opacity:1" cx="250.924" cy="71.037" r="4"/>
<circle clip-path="url(#clip9802)" style="fill:#009af9; stroke:none; fill-opacity:1" cx="250.924" cy="71.037" r="3"/>
<circle clip-path="url(#clip9802)" style="fill:#000000; stroke:none; fill-opacity:1" cx="255.852" cy="263.274" r="4"/>
<circle clip-path="url(#clip9802)" style="fill:#009af9; stroke:none; fill-opacity:1" cx="255.852" cy="263.274" r="3"/>
<circle clip-path="url(#clip9802)" style="fill:#000000; stroke:none; fill-opacity:1" cx="260.78" cy="233.846" r="4"/>
<circle clip-path="url(#clip9802)" style="fill:#009af9; stroke:none; fill-opacity:1" cx="260.78" cy="233.846" r="3"/>
<circle clip-path="url(#clip9802)" style="fill:#000000; stroke:none; fill-opacity:1" cx="265.708" cy="207.924" r="4"/>
<circle clip-path="url(#clip9802)" style="fill:#009af9; stroke:none; fill-opacity:1" cx="265.708" cy="207.924" r="3"/>
<circle clip-path="url(#clip9802)" style="fill:#000000; stroke:none; fill-opacity:1" cx="270.636" cy="239.537" r="4"/>
<circle clip-path="url(#clip9802)" style="fill:#009af9; stroke:none; fill-opacity:1" cx="270.636" cy="239.537" r="3"/>
<circle clip-path="url(#clip9802)" style="fill:#000000; stroke:none; fill-opacity:1" cx="275.564" cy="94.944" r="4"/>
<circle clip-path="url(#clip9802)" style="fill:#009af9; stroke:none; fill-opacity:1" cx="275.564" cy="94.944" r="3"/>
<circle clip-path="url(#clip9802)" style="fill:#000000; stroke:none; fill-opacity:1" cx="280.492" cy="300.031" r="4"/>
<circle clip-path="url(#clip9802)" style="fill:#009af9; stroke:none; fill-opacity:1" cx="280.492" cy="300.031" r="3"/>
<circle clip-path="url(#clip9802)" style="fill:#000000; stroke:none; fill-opacity:1" cx="285.42" cy="169.45" r="4"/>
<circle clip-path="url(#clip9802)" style="fill:#009af9; stroke:none; fill-opacity:1" cx="285.42" cy="169.45" r="3"/>
<circle clip-path="url(#clip9802)" style="fill:#000000; stroke:none; fill-opacity:1" cx="290.348" cy="68.1393" r="4"/>
<circle clip-path="url(#clip9802)" style="fill:#009af9; stroke:none; fill-opacity:1" cx="290.348" cy="68.1393" r="3"/>
<circle clip-path="url(#clip9802)" style="fill:#000000; stroke:none; fill-opacity:1" cx="295.276" cy="134.094" r="4"/>
<circle clip-path="url(#clip9802)" style="fill:#009af9; stroke:none; fill-opacity:1" cx="295.276" cy="134.094" r="3"/>
<circle clip-path="url(#clip9802)" style="fill:#000000; stroke:none; fill-opacity:1" cx="300.204" cy="110.538" r="4"/>
<circle clip-path="url(#clip9802)" style="fill:#009af9; stroke:none; fill-opacity:1" cx="300.204" cy="110.538" r="3"/>
<circle clip-path="url(#clip9802)" style="fill:#000000; stroke:none; fill-opacity:1" cx="305.132" cy="329.819" r="4"/>
<circle clip-path="url(#clip9802)" style="fill:#009af9; stroke:none; fill-opacity:1" cx="305.132" cy="329.819" r="3"/>
<circle clip-path="url(#clip9802)" style="fill:#000000; stroke:none; fill-opacity:1" cx="310.06" cy="297.565" r="4"/>
<circle clip-path="url(#clip9802)" style="fill:#009af9; stroke:none; fill-opacity:1" cx="310.06" cy="297.565" r="3"/>
<circle clip-path="url(#clip9802)" style="fill:#000000; stroke:none; fill-opacity:1" cx="314.988" cy="206.776" r="4"/>
<circle clip-path="url(#clip9802)" style="fill:#009af9; stroke:none; fill-opacity:1" cx="314.988" cy="206.776" r="3"/>
<circle clip-path="url(#clip9802)" style="fill:#000000; stroke:none; fill-opacity:1" cx="319.916" cy="115.125" r="4"/>
<circle clip-path="url(#clip9802)" style="fill:#009af9; stroke:none; fill-opacity:1" cx="319.916" cy="115.125" r="3"/>
<circle clip-path="url(#clip9802)" style="fill:#000000; stroke:none; fill-opacity:1" cx="324.844" cy="26.7785" r="4"/>
<circle clip-path="url(#clip9802)" style="fill:#009af9; stroke:none; fill-opacity:1" cx="324.844" cy="26.7785" r="3"/>
<circle clip-path="url(#clip9802)" style="fill:#000000; stroke:none; fill-opacity:1" cx="329.772" cy="248.779" r="4"/>
<circle clip-path="url(#clip9802)" style="fill:#009af9; stroke:none; fill-opacity:1" cx="329.772" cy="248.779" r="3"/>
<circle clip-path="url(#clip9802)" style="fill:#000000; stroke:none; fill-opacity:1" cx="334.7" cy="279.341" r="4"/>
<circle clip-path="url(#clip9802)" style="fill:#009af9; stroke:none; fill-opacity:1" cx="334.7" cy="279.341" r="3"/>
<circle clip-path="url(#clip9802)" style="fill:#000000; stroke:none; fill-opacity:1" cx="339.628" cy="102.607" r="4"/>
<circle clip-path="url(#clip9802)" style="fill:#009af9; stroke:none; fill-opacity:1" cx="339.628" cy="102.607" r="3"/>
<circle clip-path="url(#clip9802)" style="fill:#000000; stroke:none; fill-opacity:1" cx="344.557" cy="318.709" r="4"/>
<circle clip-path="url(#clip9802)" style="fill:#009af9; stroke:none; fill-opacity:1" cx="344.557" cy="318.709" r="3"/>
<circle clip-path="url(#clip9802)" style="fill:#000000; stroke:none; fill-opacity:1" cx="349.485" cy="269.86" r="4"/>
<circle clip-path="url(#clip9802)" style="fill:#009af9; stroke:none; fill-opacity:1" cx="349.485" cy="269.86" r="3"/>
<circle clip-path="url(#clip9802)" style="fill:#000000; stroke:none; fill-opacity:1" cx="354.413" cy="73.8617" r="4"/>
<circle clip-path="url(#clip9802)" style="fill:#009af9; stroke:none; fill-opacity:1" cx="354.413" cy="73.8617" r="3"/>
<circle clip-path="url(#clip9802)" style="fill:#000000; stroke:none; fill-opacity:1" cx="359.341" cy="213.845" r="4"/>
<circle clip-path="url(#clip9802)" style="fill:#009af9; stroke:none; fill-opacity:1" cx="359.341" cy="213.845" r="3"/>
<circle clip-path="url(#clip9802)" style="fill:#000000; stroke:none; fill-opacity:1" cx="364.269" cy="245.526" r="4"/>
<circle clip-path="url(#clip9802)" style="fill:#009af9; stroke:none; fill-opacity:1" cx="364.269" cy="245.526" r="3"/>
<circle clip-path="url(#clip9802)" style="fill:#000000; stroke:none; fill-opacity:1" cx="369.197" cy="21.6617" r="4"/>
<circle clip-path="url(#clip9802)" style="fill:#009af9; stroke:none; fill-opacity:1" cx="369.197" cy="21.6617" r="3"/>
<circle clip-path="url(#clip9802)" style="fill:#000000; stroke:none; fill-opacity:1" cx="374.125" cy="202.835" r="4"/>
<circle clip-path="url(#clip9802)" style="fill:#009af9; stroke:none; fill-opacity:1" cx="374.125" cy="202.835" r="3"/>
<circle clip-path="url(#clip9802)" style="fill:#000000; stroke:none; fill-opacity:1" cx="379.053" cy="94.6996" r="4"/>
<circle clip-path="url(#clip9802)" style="fill:#009af9; stroke:none; fill-opacity:1" cx="379.053" cy="94.6996" r="3"/>
<circle clip-path="url(#clip9802)" style="fill:#000000; stroke:none; fill-opacity:1" cx="383.981" cy="238.581" r="4"/>
<circle clip-path="url(#clip9802)" style="fill:#009af9; stroke:none; fill-opacity:1" cx="383.981" cy="238.581" r="3"/>
<circle clip-path="url(#clip9802)" style="fill:#000000; stroke:none; fill-opacity:1" cx="388.909" cy="205.089" r="4"/>
<circle clip-path="url(#clip9802)" style="fill:#009af9; stroke:none; fill-opacity:1" cx="388.909" cy="205.089" r="3"/>
<circle clip-path="url(#clip9802)" style="fill:#000000; stroke:none; fill-opacity:1" cx="393.837" cy="160.057" r="4"/>
<circle clip-path="url(#clip9802)" style="fill:#009af9; stroke:none; fill-opacity:1" cx="393.837" cy="160.057" r="3"/>
<circle clip-path="url(#clip9802)" style="fill:#000000; stroke:none; fill-opacity:1" cx="398.765" cy="104.762" r="4"/>
<circle clip-path="url(#clip9802)" style="fill:#009af9; stroke:none; fill-opacity:1" cx="398.765" cy="104.762" r="3"/>
<circle clip-path="url(#clip9802)" style="fill:#000000; stroke:none; fill-opacity:1" cx="403.693" cy="146.059" r="4"/>
<circle clip-path="url(#clip9802)" style="fill:#009af9; stroke:none; fill-opacity:1" cx="403.693" cy="146.059" r="3"/>
<circle clip-path="url(#clip9802)" style="fill:#000000; stroke:none; fill-opacity:1" cx="408.621" cy="178.272" r="4"/>
<circle clip-path="url(#clip9802)" style="fill:#009af9; stroke:none; fill-opacity:1" cx="408.621" cy="178.272" r="3"/>
<circle clip-path="url(#clip9802)" style="fill:#000000; stroke:none; fill-opacity:1" cx="413.549" cy="240.811" r="4"/>
<circle clip-path="url(#clip9802)" style="fill:#009af9; stroke:none; fill-opacity:1" cx="413.549" cy="240.811" r="3"/>
<circle clip-path="url(#clip9802)" style="fill:#000000; stroke:none; fill-opacity:1" cx="418.477" cy="283.437" r="4"/>
<circle clip-path="url(#clip9802)" style="fill:#009af9; stroke:none; fill-opacity:1" cx="418.477" cy="283.437" r="3"/>
<circle clip-path="url(#clip9802)" style="fill:#000000; stroke:none; fill-opacity:1" cx="423.405" cy="102.671" r="4"/>
<circle clip-path="url(#clip9802)" style="fill:#009af9; stroke:none; fill-opacity:1" cx="423.405" cy="102.671" r="3"/>
<circle clip-path="url(#clip9802)" style="fill:#000000; stroke:none; fill-opacity:1" cx="428.333" cy="43.7723" r="4"/>
<circle clip-path="url(#clip9802)" style="fill:#009af9; stroke:none; fill-opacity:1" cx="428.333" cy="43.7723" r="3"/>
<circle clip-path="url(#clip9802)" style="fill:#000000; stroke:none; fill-opacity:1" cx="433.261" cy="327.411" r="4"/>
<circle clip-path="url(#clip9802)" style="fill:#009af9; stroke:none; fill-opacity:1" cx="433.261" cy="327.411" r="3"/>
<circle clip-path="url(#clip9802)" style="fill:#000000; stroke:none; fill-opacity:1" cx="438.19" cy="84.6073" r="4"/>
<circle clip-path="url(#clip9802)" style="fill:#009af9; stroke:none; fill-opacity:1" cx="438.19" cy="84.6073" r="3"/>
<circle clip-path="url(#clip9802)" style="fill:#000000; stroke:none; fill-opacity:1" cx="443.118" cy="224.342" r="4"/>
<circle clip-path="url(#clip9802)" style="fill:#009af9; stroke:none; fill-opacity:1" cx="443.118" cy="224.342" r="3"/>
<circle clip-path="url(#clip9802)" style="fill:#000000; stroke:none; fill-opacity:1" cx="448.046" cy="87.6261" r="4"/>
<circle clip-path="url(#clip9802)" style="fill:#009af9; stroke:none; fill-opacity:1" cx="448.046" cy="87.6261" r="3"/>
<circle clip-path="url(#clip9802)" style="fill:#000000; stroke:none; fill-opacity:1" cx="452.974" cy="308.603" r="4"/>
<circle clip-path="url(#clip9802)" style="fill:#009af9; stroke:none; fill-opacity:1" cx="452.974" cy="308.603" r="3"/>
<circle clip-path="url(#clip9802)" style="fill:#000000; stroke:none; fill-opacity:1" cx="457.902" cy="136.492" r="4"/>
<circle clip-path="url(#clip9802)" style="fill:#009af9; stroke:none; fill-opacity:1" cx="457.902" cy="136.492" r="3"/>
<circle clip-path="url(#clip9802)" style="fill:#000000; stroke:none; fill-opacity:1" cx="462.83" cy="171.107" r="4"/>
<circle clip-path="url(#clip9802)" style="fill:#009af9; stroke:none; fill-opacity:1" cx="462.83" cy="171.107" r="3"/>
<circle clip-path="url(#clip9802)" style="fill:#000000; stroke:none; fill-opacity:1" cx="467.758" cy="156.486" r="4"/>
<circle clip-path="url(#clip9802)" style="fill:#009af9; stroke:none; fill-opacity:1" cx="467.758" cy="156.486" r="3"/>
<circle clip-path="url(#clip9802)" style="fill:#000000; stroke:none; fill-opacity:1" cx="472.686" cy="80.1786" r="4"/>
<circle clip-path="url(#clip9802)" style="fill:#009af9; stroke:none; fill-opacity:1" cx="472.686" cy="80.1786" r="3"/>
<circle clip-path="url(#clip9802)" style="fill:#000000; stroke:none; fill-opacity:1" cx="477.614" cy="51.6385" r="4"/>
<circle clip-path="url(#clip9802)" style="fill:#009af9; stroke:none; fill-opacity:1" cx="477.614" cy="51.6385" r="3"/>
<circle clip-path="url(#clip9802)" style="fill:#000000; stroke:none; fill-opacity:1" cx="482.542" cy="224.35" r="4"/>
<circle clip-path="url(#clip9802)" style="fill:#009af9; stroke:none; fill-opacity:1" cx="482.542" cy="224.35" r="3"/>
<circle clip-path="url(#clip9802)" style="fill:#000000; stroke:none; fill-opacity:1" cx="487.47" cy="255.367" r="4"/>
<circle clip-path="url(#clip9802)" style="fill:#009af9; stroke:none; fill-opacity:1" cx="487.47" cy="255.367" r="3"/>
<circle clip-path="url(#clip9802)" style="fill:#000000; stroke:none; fill-opacity:1" cx="492.398" cy="309.795" r="4"/>
<circle clip-path="url(#clip9802)" style="fill:#009af9; stroke:none; fill-opacity:1" cx="492.398" cy="309.795" r="3"/>
<circle clip-path="url(#clip9802)" style="fill:#000000; stroke:none; fill-opacity:1" cx="497.326" cy="224.581" r="4"/>
<circle clip-path="url(#clip9802)" style="fill:#009af9; stroke:none; fill-opacity:1" cx="497.326" cy="224.581" r="3"/>
<circle clip-path="url(#clip9802)" style="fill:#000000; stroke:none; fill-opacity:1" cx="502.254" cy="57.8219" r="4"/>
<circle clip-path="url(#clip9802)" style="fill:#009af9; stroke:none; fill-opacity:1" cx="502.254" cy="57.8219" r="3"/>
<circle clip-path="url(#clip9802)" style="fill:#000000; stroke:none; fill-opacity:1" cx="507.182" cy="111.277" r="4"/>
<circle clip-path="url(#clip9802)" style="fill:#009af9; stroke:none; fill-opacity:1" cx="507.182" cy="111.277" r="3"/>
<circle clip-path="url(#clip9802)" style="fill:#000000; stroke:none; fill-opacity:1" cx="512.11" cy="35.5108" r="4"/>
<circle clip-path="url(#clip9802)" style="fill:#009af9; stroke:none; fill-opacity:1" cx="512.11" cy="35.5108" r="3"/>
<circle clip-path="url(#clip9802)" style="fill:#000000; stroke:none; fill-opacity:1" cx="517.038" cy="82.312" r="4"/>
<circle clip-path="url(#clip9802)" style="fill:#009af9; stroke:none; fill-opacity:1" cx="517.038" cy="82.312" r="3"/>
<circle clip-path="url(#clip9802)" style="fill:#000000; stroke:none; fill-opacity:1" cx="521.966" cy="279.288" r="4"/>
<circle clip-path="url(#clip9802)" style="fill:#009af9; stroke:none; fill-opacity:1" cx="521.966" cy="279.288" r="3"/>
<circle clip-path="url(#clip9802)" style="fill:#000000; stroke:none; fill-opacity:1" cx="526.894" cy="114.483" r="4"/>
<circle clip-path="url(#clip9802)" style="fill:#009af9; stroke:none; fill-opacity:1" cx="526.894" cy="114.483" r="3"/>
<circle clip-path="url(#clip9802)" style="fill:#000000; stroke:none; fill-opacity:1" cx="531.823" cy="194.776" r="4"/>
<circle clip-path="url(#clip9802)" style="fill:#009af9; stroke:none; fill-opacity:1" cx="531.823" cy="194.776" r="3"/>
<circle clip-path="url(#clip9802)" style="fill:#000000; stroke:none; fill-opacity:1" cx="536.751" cy="61.063" r="4"/>
<circle clip-path="url(#clip9802)" style="fill:#009af9; stroke:none; fill-opacity:1" cx="536.751" cy="61.063" r="3"/>
<circle clip-path="url(#clip9802)" style="fill:#000000; stroke:none; fill-opacity:1" cx="541.679" cy="247.752" r="4"/>
<circle clip-path="url(#clip9802)" style="fill:#009af9; stroke:none; fill-opacity:1" cx="541.679" cy="247.752" r="3"/>
<polygon clip-path="url(#clip9800)" points="
468.728,61.491 539.035,61.491 539.035,31.251 468.728,31.251 
  " fill="#ffffff" fill-opacity="1"/>
<polyline clip-path="url(#clip9800)" style="stroke:#000000; stroke-width:1; stroke-opacity:1; fill:none" points="
  468.728,61.491 539.035,61.491 539.035,31.251 468.728,31.251 468.728,61.491 
  "/>
<circle clip-path="url(#clip9800)" style="fill:#000000; stroke:none; fill-opacity:1" cx="494.648" cy="46.371" r="6"/>
<circle clip-path="url(#clip9800)" style="fill:#009af9; stroke:none; fill-opacity:1" cx="494.648" cy="46.371" r="5"/>
<g clip-path="url(#clip9800)">
<text style="fill:#000000; fill-opacity:1; font-family:Arial,Helvetica Neue,Helvetica,sans-serif; font-size:12; text-anchor:start;" transform="rotate(0, 514.808, 50.871)" x="514.808" y="50.871">y1</text>
</g>
</svg>
