<?xml version="1.0" encoding="UTF-8" standalone="no"?>
<!-- Created with Inkscape (http://www.inkscape.org/) -->

<svg
   xmlns:dc="http://purl.org/dc/elements/1.1/"
   xmlns:cc="http://creativecommons.org/ns#"
   xmlns:rdf="http://www.w3.org/1999/02/22-rdf-syntax-ns#"
   xmlns:svg="http://www.w3.org/2000/svg"
   xmlns="http://www.w3.org/2000/svg"
   xmlns:sodipodi="http://sodipodi.sourceforge.net/DTD/sodipodi-0.dtd"
   xmlns:inkscape="http://www.inkscape.org/namespaces/inkscape"
   version="1.1"
   id="svg4034"
   width="1000"
   height="1000"
   viewBox="0 0 1000 1000"
   sodipodi:docname="logo.svg"
   inkscape:version="0.92.3 (2405546, 2018-03-11)">
  <metadata
     id="metadata4040">
    <rdf:RDF>
      <cc:Work
         rdf:about="">
        <dc:format>image/svg+xml</dc:format>
        <dc:type
           rdf:resource="http://purl.org/dc/dcmitype/StillImage" />
        <dc:title></dc:title>
      </cc:Work>
    </rdf:RDF>
  </metadata>
  <defs
     id="defs4038" />
  <sodipodi:namedview
     pagecolor="#ffffff"
     bordercolor="#666666"
     borderopacity="1"
     objecttolerance="10"
     gridtolerance="10"
     guidetolerance="10"
     inkscape:pageopacity="0"
     inkscape:pageshadow="2"
     inkscape:window-width="1920"
     inkscape:window-height="1016"
     id="namedview4036"
     showgrid="false"
     inkscape:zoom="0.24"
     inkscape:cx="1382.3793"
     inkscape:cy="742.15667"
     inkscape:window-x="0"
     inkscape:window-y="27"
     inkscape:window-maximized="1"
     inkscape:current-layer="svg4034" />
  <g
     id="g5154"
     transform="matrix(1.4195579,0,0,1.4195579,-401.1304,7.5852536)">
    <path
       inkscape:connector-curvature="0"
       id="path4311"
       d="m 642.26213,9.2252905 c -2.5688,-0.054187 -7.46606,0.5474159 -12.58526,1.6069725 -11.52617,2.385966 -28.91792,13.827967 -34.93082,22.979982 -2.40447,3.660716 -2.39577,55.645904 0.0173,95.049075 3.18148,51.9587 13.08075,110.212 25.94864,152.7316 3.93865,13.01439 7.53082,23.9577 7.9842,24.31626 0.45344,0.35859 -1.26981,-8.76601 -3.83138,-20.28187 -15.14244,-68.076 -11.24377,-154.41482 10.66534,-236.244205 5.68855,-21.246395 9.48957,-39.186814 8.44936,-39.8702361 -0.26003,-0.1707638 -0.86066,-0.2694658 -1.71697,-0.2875784 z"
       style="fill:#185e6f;fill-opacity:1;stroke-width:2.37225509" />
    <path
       inkscape:connector-curvature="0"
       id="path4309"
       d="m 656.73349,13.631841 -8.05183,27.352638 C 616.38358,150.69764 617.19984,259.55186 650.93143,341.2037 v 0.009 c 5.08984,12.32062 9.70068,22.69447 10.25086,23.05606 1.32162,0.8683 0.68079,-1.15599 -8.53394,-26.71829 C 638.69478,298.842 633.01389,244.09214 638.24468,198.71478 643.4983,153.13902 663.47771,95.003118 688.56876,52.292762 l 15.34252,-26.117786 -7.18912,-4.584135 c -4.02474,-2.567201 -14.41323,-5.332712 -23.58893,-6.275713 z"
       style="fill:#185e6f;fill-opacity:1;stroke-width:2.37225509" />
    <path
       inkscape:connector-curvature="0"
       id="path4307"
       d="m 718.5941,31.427099 c -4.311,0.02526 -5.98753,1.695571 -9.32056,5.912036 -15.48442,19.588711 -42.12432,79.611095 -52.07486,117.318625 -13.39458,50.75887 -14.61649,94.99111 -4.04283,146.40507 7.46441,36.29564 14.981,57.95146 29.50091,84.98431 11.37035,21.16913 11.56519,20.57526 1.99606,-6.0135 -13.12243,-36.4618 -18.02988,-86.13732 -12.88978,-130.479 6.89103,-59.44614 25.98252,-111.72075 63.65368,-174.299037 l 20.19733,-33.560672 -5.12547,-2.994089 c -2.82015,-1.64799 -11.98082,-4.228036 -20.35801,-5.734428 -5.41613,-0.973894 -8.94986,-1.554427 -11.53647,-1.539315 z"
       style="fill:#185e6f;fill-opacity:1;stroke-width:2.37225509" />
    <path
       inkscape:connector-curvature="0"
       id="path4305"
       d="m 582.03392,44.519831 -5.25232,7.654346 c -2.89072,4.210938 -10.7263,14.648173 -17.41465,23.191375 l -12.16241,15.537052 9.66731,45.849906 c 15.83357,75.1101 34.69203,129.06257 63.61982,182.01258 18.54552,33.94603 18.94443,34.00723 5.07469,0.8035 -26.70244,-63.92513 -40.8669,-144.82884 -42.91501,-245.091118 z"
       style="fill:#185e6f;fill-opacity:1;stroke-width:2.37225509" />
    <path
       inkscape:connector-curvature="0"
       id="path4303"
       d="m 788.3543,50.871665 c -5.39021,0.04145 -10.87125,1.460711 -17.60075,4.271234 l -12.5937,5.260737 -20.95005,34.482603 c -59.82545,98.452181 -74.45409,200.888871 -41.92551,293.546001 3.80572,10.84055 7.20077,19.92016 7.55288,20.18041 0.35193,0.26022 -0.29235,-6.15242 -1.43787,-14.25147 -10.28962,-72.75098 26.4673,-192.07964 94.40632,-306.486493 l 17.57541,-29.602426 -7.96727,-3.391574 c -6.36634,-2.710008 -11.66924,-4.050364 -17.05946,-4.009022 z"
       style="fill:#185e6f;fill-opacity:1;stroke-width:2.37225509" />
    <path
       inkscape:connector-curvature="0"
       id="path4301"
       d="m 823.73463,65.488168 c -3.39548,-0.400853 -7.96373,8.171537 -36.78453,60.658202 -39.91039,72.68242 -68.41321,151.78109 -75.67307,210.01 -5.12756,41.12626 -1.65056,70.04961 13.38309,111.52155 l 2.95996,8.17154 -14.94741,-9.65151 c -64.09474,-41.38805 -141.43953,-50.48521 -249.8852,-29.40571 -50.23232,9.76404 -134.4878,34.69032 -137.66792,40.73115 -0.52308,0.99365 1.51266,10.04295 4.52428,20.1126 3.01164,10.06963 5.57964,18.46778 5.7091,18.65789 0.12975,0.19019 8.50722,-4.12226 18.61575,-9.57984 39.85208,-21.51616 94.42128,-42.67607 139.11416,-53.94558 65.97116,-16.63497 122.03875,-18.50865 171.14252,-5.71755 16.11841,4.19872 23.09196,7.43154 41.33412,19.17232 l 21.95098,14.1252 45.47468,56.05804 c 25.01492,30.83448 54.54049,66.59083 65.60836,79.44683 21.91635,25.4572 77.49144,86.31738 80.81296,88.4996 1.13445,0.74536 3.51845,-0.85334 5.29589,-3.55871 3.64536,-5.54851 3.56644,-5.65064 -19.85958,-25.93975 -23.31923,-20.19655 -54.79336,-51.92804 -81.50869,-82.17488 -31.99893,-36.22886 -83.18597,-101.38344 -89.2881,-113.6509 -6.47933,-13.02561 -12.72989,-45.18759 -12.78013,-65.75171 -0.10902,-44.83431 13.24629,-92.52598 41.81479,-149.31382 13.83621,-27.50339 73.92549,-115.18207 93.59732,-136.57585 8.71405,-9.476794 12.72353,-15.05965 11.41821,-15.917204 -1.10584,-0.726556 -7.15341,-2.001176 -13.4337,-2.82503 -10.89702,-1.42956 -11.70611,-1.894184 -17.70074,-10.208097 -3.4549,-4.791557 -8.3118,-10.037376 -10.78576,-11.662763 -0.94242,-0.619154 -1.65775,-1.193512 -2.44134,-1.286018 z"
       style="fill:#728d6c;fill-opacity:1;stroke-width:2.37225509" />
    <path
       inkscape:connector-curvature="0"
       id="path4299"
       d="m 509.18657,89.523972 c -3.57359,-0.08592 -6.3709,0.04123 -7.53591,0.397528 -3.54188,1.083174 2.60675,15.13249 37.52742,85.7032 22.97219,46.42413 42.10005,84.7136 42.5006,85.09425 1.20317,1.14284 0.42789,-1.21264 -6.5548,-19.90127 -11.36431,-30.41563 -22.23661,-69.70812 -30.43131,-110.02794 l -7.84888,-38.626915 -15.47784,-1.767698 c -4.25696,-0.48658 -8.60561,-0.785276 -12.17928,-0.871155 z"
       style="fill:#b9714f;fill-opacity:1;stroke-width:2.37225509" />
    <path
       inkscape:connector-curvature="0"
       id="path4297"
       d="m 487.77984,97.076809 c -0.58768,-0.392627 -6.60185,2.555888 -13.37183,6.554811 l -12.31465,7.27376 15.55396,20.37492 c 8.55275,11.20791 29.94242,39.30185 47.53302,62.42723 17.59056,23.12541 32.82641,42.70755 33.85672,43.51556 1.03028,0.80799 -14.34527,-30.23453 -34.1612,-68.98209 C 505.06,129.49349 488.3679,97.468702 487.77984,97.076809 Z"
       style="fill:#b9714f;fill-opacity:1;stroke-width:2.37225509" />
    <path
       inkscape:connector-curvature="0"
       id="path4295"
       d="m 878.73472,99.157451 -5.34537,5.548339 c -28.77099,29.86584 -83.2628,106.95142 -102.84726,145.49164 -25.53563,50.25163 -41.28535,105.05962 -41.33341,143.81698 -0.0129,11.24498 1.18311,7.79037 4.13588,-11.9509 4.45652,-29.79539 13.68509,-53.12856 34.81243,-88.02065 20.57765,-33.98425 41.2608,-59.14246 73.48166,-89.38241 21.42107,-20.10415 61.98038,-52.86392 79.27526,-64.02581 6.4786,-4.18119 11.64228,-8.25321 11.47728,-9.04986 -0.16494,-0.79668 -12.3078,-8.41357 -26.98048,-16.93261 z"
       style="fill:#185e6f;fill-opacity:1;stroke-width:2.37225509" />
    <path
       inkscape:connector-curvature="0"
       id="path4293"
       d="m 451.04742,117.84927 c -1.22069,0.25168 -9.26403,5.40683 -17.87137,11.46035 l -15.64698,11.00365 25.13668,18.5142 c 29.9082,22.02651 80.63142,62.8886 100.49596,80.94994 7.81857,7.10887 15.49058,13.90354 17.04256,15.10567 1.55184,1.20212 -21.87455,-29.24162 -52.05798,-67.65423 -30.18341,-38.41255 -55.87811,-69.63117 -57.09887,-69.37958 z"
       style="fill:#b9714f;fill-opacity:1;stroke-width:2.37225509" />
    <path
       inkscape:connector-curvature="0"
       id="path4291"
       d="m 941.59331,141.92869 c -5.12084,-0.25237 -16.4078,7.60333 -47.54995,31.86914 -77.53343,60.41369 -129.28011,126.54972 -147.79214,188.8803 -2.03675,6.85785 -3.51204,12.58638 -3.28167,12.73752 0.23033,0.15134 8.52805,-11.95515 18.44656,-26.90438 13.94521,-21.0182 21.6278,-30.50302 33.89052,-41.84934 19.54623,-18.08552 44.14959,-35.43271 56.32071,-39.70951 22.56573,-7.9293 72.84839,-43.76435 82.92061,-59.09491 2.09016,-3.1813 5.35594,-11.91301 7.25682,-19.41073 1.90083,-7.4977 5.11886,-17.34674 7.14687,-21.88038 3.64931,-8.15829 2.26718,-15.11049 -4.62643,-23.26752 -0.69288,-0.81988 -1.55017,-1.31195 -2.7319,-1.37019 z"
       style="fill:#185e6f;fill-opacity:1;stroke-width:2.37225509" />
    <path
       inkscape:connector-curvature="0"
       id="path4289"
       d="m 405.30747,148.54275 c -3.65953,1.59273 -18.85076,14.40034 -27.58098,23.25058 l -5.60756,5.68367 9.62504,1.80148 c 9.5574,1.79356 55.70571,17.44147 70.5045,23.90183 23.44325,10.23407 45.32451,22.21476 72.00996,39.44736 33.41312,21.57704 31.16819,18.91615 -17.54153,-20.83166 -47.54427,-38.79671 -97.56304,-74.92732 -101.40943,-73.25326 z"
       style="fill:#b9714f;fill-opacity:1;stroke-width:2.37225509" />
    <path
       inkscape:connector-curvature="0"
       id="path4287"
       d="m 363.97406,186.94127 c -7.36254,0.74059 -14.71924,18.5243 -13.47336,32.55422 0.60217,6.78099 1.79427,12.78894 2.6558,13.35495 0.86146,0.56598 6.91555,1.41738 13.44793,1.88606 33.41331,2.3973 103.62695,18.29082 141.7533,32.08902 23.79587,8.6119 59.4562,25.01727 74.10753,34.09356 l 10.0902,6.25032 -6.76627,-6.9862 C 573.79006,287.78285 502.98577,239.41273 479.94786,227.87721 440.92892,208.33965 376.68891,185.66229 363.97406,186.94127 Z"
       style="fill:#b9714f;fill-opacity:1;stroke-width:2.37225509" />
    <path
       inkscape:connector-curvature="0"
       id="path4285"
       d="m 351.04201,244.58986 c -1.74922,0.0784 -2.82078,0.28494 -3.0448,0.62589 -0.89613,1.36393 -2.54533,8.71489 -3.66223,16.33209 -1.11694,7.61723 -3.63036,16.30395 -5.59065,19.30922 -4.03389,6.18751 -2.34456,8.4445 4.71948,6.2842 2.64465,-0.80879 14.92253,-2.17803 27.27651,-3.0364 89.37745,-6.21006 165.79267,9.75845 233.32624,48.74251 l 24.69691,14.25146 -17.25402,-15.12262 c -44.38784,-38.90588 -131.68773,-70.97782 -231.27098,-84.95049 -12.6274,-1.77174 -23.94866,-2.67078 -29.19646,-2.43586 z"
       style="fill:#b9714f;fill-opacity:1;stroke-width:2.37225509" />
    <path
       inkscape:connector-curvature="0"
       id="path4283"
       d="m 406.13635,292.80799 c -29.39734,0.26281 -66.4058,3.86395 -68.22934,6.63939 -0.67866,1.03298 1.75664,8.51762 5.40458,16.62813 3.64793,8.11055 6.41752,15.71047 6.15727,16.89873 -0.79078,3.60958 0.68412,3.65986 29.35714,0.84577 88.09389,-8.64596 170.87096,-0.98758 231.78693,21.45753 8.16974,3.01019 18.05089,7.41385 21.95652,9.78574 6.9317,4.20958 6.91905,4.12774 -0.59204,-3.417 -17.20201,-17.27891 -72.49408,-43.74837 -115.51708,-55.30576 -28.72669,-7.71695 -78.45804,-13.81748 -110.32398,-13.53253 z"
       style="fill:#b9714f;fill-opacity:1;stroke-width:2.37225509" />
    <path
       inkscape:connector-curvature="0"
       id="path4281"
       d="m 445.30458,340.52708 c -12.73873,0.13838 -25.72203,0.64879 -38.88913,1.53934 -55.16578,3.73107 -59.11248,4.66783 -72.98261,17.3047 -11.49245,10.47063 -12.08587,11.4056 -13.69325,21.51673 -0.92401,5.81352 -1.22586,10.86565 -0.66819,11.23201 0.55767,0.36639 23.8927,-3.85586 51.85499,-9.37971 121.73408,-24.04815 218.15166,-21.1956 285.63796,8.44936 l 17.62611,7.73893 -14.9788,-10.12404 C 611.84588,356.77102 534.47558,339.55785 445.30458,340.52708 Z"
       style="fill:#728d6c;fill-opacity:1;stroke-width:2.37225509" />
    <path
       inkscape:connector-curvature="0"
       id="path4279"
       d="m 525.89928,375.57633 c -4.34315,-0.0421 -8.74259,-0.0332 -13.20268,0.0339 -16.46801,0.24783 -33.72695,1.23828 -51.77041,2.97716 -47.46148,4.57403 -138.39907,22.0388 -141.81247,27.23425 -0.83526,1.27123 -0.43132,4.6312 0.89652,7.46823 1.32788,2.8371 2.3609,11.37685 2.2921,18.9794 l -0.12694,13.82009 9.43897,-3.34928 c 102.97668,-36.59453 198.61674,-52.0158 270.7775,-43.65088 25.46059,2.95143 58.83351,11.61264 74.58962,19.35152 19.50838,9.58187 21.45019,7.37875 3.79756,-4.31352 -37.7704,-25.01721 -89.73242,-37.91999 -154.87982,-38.5508 z"
       style="fill:#728d6c;fill-opacity:1;stroke-width:2.37225509" />
    <path
       inkscape:connector-curvature="0"
       id="path4277"
       d="m 592.40322,427.22835 c -43.06737,0.56162 -91.30147,10.40144 -144.70506,29.52626 -49.05329,17.56696 -110.67395,47.36131 -108.33638,52.37939 0.69316,1.48794 5.71414,7.96544 11.15587,14.39525 5.44167,6.42979 10.31528,12.01808 10.83446,12.41606 0.51913,0.39788 9.59555,-4.66004 20.16348,-11.24045 26.49739,-16.49935 63.76451,-35.79457 94.21181,-48.77631 67.95796,-28.97505 134.41898,-42.17041 183.59421,-36.45328 23.6304,2.74731 23.53172,1.4785 -0.37216,-4.71101 -18.11809,-4.69139 -37.45653,-7.19982 -58.00381,-7.52747 -2.82524,-0.0451 -5.67128,-0.046 -8.54242,-0.009 z"
       style="fill:#728d6c;fill-opacity:1;stroke-width:2.37225509" />
    <path
       inkscape:connector-curvature="0"
       id="path4044-3"
       d="m 629.23707,446.51219 c -37.62347,0.78122 -88.5374,12.97123 -137.95571,33.19702 -46.22535,18.91891 -119.87931,59.45622 -121.49677,66.86759 -0.39324,1.80181 0.5633,4.12061 2.13139,5.15085 5.0626,3.32616 113.10851,-36.87057 194.03958,-72.18763 25.92129,-11.31163 54.15989,-23.33472 62.74865,-26.71829 14.55607,-5.73432 15.08598,-6.1571 7.87426,-6.30954 -2.38568,-0.0503 -4.83318,-0.052 -7.3414,0 z"
       style="fill:#728d6c;fill-opacity:1;stroke-width:2.37225509" />
    <path
       sodipodi:nodetypes="csscsccscccscsc"
       id="path4301-7"
       d="m 823.73463,65.488168 c -3.39548,-0.400853 -7.96373,8.171537 -36.78453,60.658202 -39.91039,72.68242 -68.41321,151.78109 -75.67307,210.01 -5.12756,41.12626 -1.65056,70.04961 13.38309,111.52155 l 2.95996,8.17154 c 2.24012,6.18428 8.04525,6.32333 6.42586,3.1792 -7.53993,-18.55547 -12.7299,-45.18759 -12.78013,-65.75171 -0.10902,-44.83431 13.24629,-92.52598 41.81478,-149.31382 13.83622,-27.50339 73.9255,-115.18207 93.59733,-136.57585 8.71405,-9.476794 12.72353,-15.05965 11.41821,-15.917204 -1.10584,-0.726556 -7.15341,-2.001176 -13.4337,-2.82503 -10.89703,-1.42956 -11.70611,-1.894184 -17.70075,-10.208097 -3.45489,-4.791557 -8.31179,-10.037376 -10.78575,-11.662763 -0.94242,-0.619154 -1.65775,-1.193512 -2.44134,-1.286018 z"
       style="fill:#185e6f;fill-opacity:1;stroke-width:2.37225509"
       inkscape:connector-curvature="0" />
  </g>
</svg>
