<?xml version="1.0" encoding="utf-8"?>
<svg xmlns="http://www.w3.org/2000/svg" xmlns:xlink="http://www.w3.org/1999/xlink" width="600" height="400" viewBox="0 0 2400 1600">
<defs>
  <clipPath id="clip420">
    <rect x="0" y="0" width="2400" height="1600"/>
  </clipPath>
</defs>
<path clip-path="url(#clip420)" d="
M0 1600 L2400 1600 L2400 0 L0 0  Z
  " fill="#ffffff" fill-rule="evenodd" fill-opacity="1"/>
<defs>
  <clipPath id="clip421">
    <rect x="480" y="0" width="1681" height="1600"/>
  </clipPath>
</defs>
<path clip-path="url(#clip420)" d="
M287.366 1423.18 L2352.76 1423.18 L2352.76 47.2441 L287.366 47.2441  Z
  " fill="#ffffff" fill-rule="evenodd" fill-opacity="1"/>
<defs>
  <clipPath id="clip422">
    <rect x="287" y="47" width="2066" height="1377"/>
  </clipPath>
</defs>
<polyline clip-path="url(#clip422)" style="stroke:#000000; stroke-linecap:butt; stroke-linejoin:round; stroke-width:2; stroke-opacity:0.1; fill:none" points="
  287.366,1423.18 287.366,47.2441 
  "/>
<polyline clip-path="url(#clip422)" style="stroke:#000000; stroke-linecap:butt; stroke-linejoin:round; stroke-width:2; stroke-opacity:0.1; fill:none" points="
  803.713,1423.18 803.713,47.2441 
  "/>
<polyline clip-path="url(#clip422)" style="stroke:#000000; stroke-linecap:butt; stroke-linejoin:round; stroke-width:2; stroke-opacity:0.1; fill:none" points="
  1836.41,1423.18 1836.41,47.2441 
  "/>
<polyline clip-path="url(#clip422)" style="stroke:#000000; stroke-linecap:butt; stroke-linejoin:round; stroke-width:2; stroke-opacity:0.1; fill:none" points="
  2352.76,1423.18 2352.76,47.2441 
  "/>
<polyline clip-path="url(#clip420)" style="stroke:#000000; stroke-linecap:butt; stroke-linejoin:round; stroke-width:4; stroke-opacity:1; fill:none" points="
  287.366,704.811 2352.76,704.811 
  "/>
<polyline clip-path="url(#clip420)" style="stroke:#000000; stroke-linecap:butt; stroke-linejoin:round; stroke-width:4; stroke-opacity:1; fill:none" points="
  287.366,723.709 287.366,685.913 
  "/>
<polyline clip-path="url(#clip420)" style="stroke:#000000; stroke-linecap:butt; stroke-linejoin:round; stroke-width:4; stroke-opacity:1; fill:none" points="
  803.713,723.709 803.713,685.913 
  "/>
<polyline clip-path="url(#clip420)" style="stroke:#000000; stroke-linecap:butt; stroke-linejoin:round; stroke-width:4; stroke-opacity:1; fill:none" points="
  1836.41,723.709 1836.41,685.913 
  "/>
<polyline clip-path="url(#clip420)" style="stroke:#000000; stroke-linecap:butt; stroke-linejoin:round; stroke-width:4; stroke-opacity:1; fill:none" points="
  2352.76,723.709 2352.76,685.913 
  "/>
<path clip-path="url(#clip420)" d="M218.813 750.383 L248.489 750.383 L248.489 754.318 L218.813 754.318 L218.813 750.383 Z" fill="#000000" fill-rule="evenodd" fill-opacity="1" /><path clip-path="url(#clip420)" d="M268.581 735.73 Q264.97 735.73 263.141 739.295 Q261.336 742.836 261.336 749.966 Q261.336 757.072 263.141 760.637 Q264.97 764.179 268.581 764.179 Q272.216 764.179 274.021 760.637 Q275.85 757.072 275.85 749.966 Q275.85 742.836 274.021 739.295 Q272.216 735.73 268.581 735.73 M268.581 732.026 Q274.391 732.026 277.447 736.633 Q280.526 741.216 280.526 749.966 Q280.526 758.693 277.447 763.299 Q274.391 767.882 268.581 767.882 Q262.771 767.882 259.692 763.299 Q256.637 758.693 256.637 749.966 Q256.637 741.216 259.692 736.633 Q262.771 732.026 268.581 732.026 Z" fill="#000000" fill-rule="evenodd" fill-opacity="1" /><path clip-path="url(#clip420)" d="M288.743 761.332 L293.627 761.332 L293.627 767.211 L288.743 767.211 L288.743 761.332 Z" fill="#000000" fill-rule="evenodd" fill-opacity="1" /><path clip-path="url(#clip420)" d="M304.623 763.276 L312.262 763.276 L312.262 736.91 L303.951 738.577 L303.951 734.318 L312.215 732.651 L316.891 732.651 L316.891 763.276 L324.53 763.276 L324.53 767.211 L304.623 767.211 L304.623 763.276 Z" fill="#000000" fill-rule="evenodd" fill-opacity="1" /><path clip-path="url(#clip420)" d="M343.974 735.73 Q340.363 735.73 338.535 739.295 Q336.729 742.836 336.729 749.966 Q336.729 757.072 338.535 760.637 Q340.363 764.179 343.974 764.179 Q347.609 764.179 349.414 760.637 Q351.243 757.072 351.243 749.966 Q351.243 742.836 349.414 739.295 Q347.609 735.73 343.974 735.73 M343.974 732.026 Q349.785 732.026 352.84 736.633 Q355.919 741.216 355.919 749.966 Q355.919 758.693 352.84 763.299 Q349.785 767.882 343.974 767.882 Q338.164 767.882 335.086 763.299 Q332.03 758.693 332.03 749.966 Q332.03 741.216 335.086 736.633 Q338.164 732.026 343.974 732.026 Z" fill="#000000" fill-rule="evenodd" fill-opacity="1" /><path clip-path="url(#clip420)" d="M735.658 750.383 L765.334 750.383 L765.334 754.318 L735.658 754.318 L735.658 750.383 Z" fill="#000000" fill-rule="evenodd" fill-opacity="1" /><path clip-path="url(#clip420)" d="M785.426 735.73 Q781.815 735.73 779.987 739.295 Q778.181 742.836 778.181 749.966 Q778.181 757.072 779.987 760.637 Q781.815 764.179 785.426 764.179 Q789.061 764.179 790.866 760.637 Q792.695 757.072 792.695 749.966 Q792.695 742.836 790.866 739.295 Q789.061 735.73 785.426 735.73 M785.426 732.026 Q791.237 732.026 794.292 736.633 Q797.371 741.216 797.371 749.966 Q797.371 758.693 794.292 763.299 Q791.237 767.882 785.426 767.882 Q779.616 767.882 776.538 763.299 Q773.482 758.693 773.482 749.966 Q773.482 741.216 776.538 736.633 Q779.616 732.026 785.426 732.026 Z" fill="#000000" fill-rule="evenodd" fill-opacity="1" /><path clip-path="url(#clip420)" d="M805.588 761.332 L810.473 761.332 L810.473 767.211 L805.588 767.211 L805.588 761.332 Z" fill="#000000" fill-rule="evenodd" fill-opacity="1" /><path clip-path="url(#clip420)" d="M830.658 735.73 Q827.047 735.73 825.218 739.295 Q823.412 742.836 823.412 749.966 Q823.412 757.072 825.218 760.637 Q827.047 764.179 830.658 764.179 Q834.292 764.179 836.097 760.637 Q837.926 757.072 837.926 749.966 Q837.926 742.836 836.097 739.295 Q834.292 735.73 830.658 735.73 M830.658 732.026 Q836.468 732.026 839.523 736.633 Q842.602 741.216 842.602 749.966 Q842.602 758.693 839.523 763.299 Q836.468 767.882 830.658 767.882 Q824.848 767.882 821.769 763.299 Q818.713 758.693 818.713 749.966 Q818.713 741.216 821.769 736.633 Q824.848 732.026 830.658 732.026 Z" fill="#000000" fill-rule="evenodd" fill-opacity="1" /><path clip-path="url(#clip420)" d="M850.866 732.651 L869.222 732.651 L869.222 736.586 L855.148 736.586 L855.148 745.058 Q856.167 744.711 857.185 744.549 Q858.204 744.364 859.222 744.364 Q865.009 744.364 868.389 747.535 Q871.769 750.707 871.769 756.123 Q871.769 761.702 868.296 764.804 Q864.824 767.882 858.505 767.882 Q856.329 767.882 854.06 767.512 Q851.815 767.142 849.408 766.401 L849.408 761.702 Q851.491 762.836 853.713 763.392 Q855.935 763.947 858.412 763.947 Q862.417 763.947 864.755 761.841 Q867.093 759.734 867.093 756.123 Q867.093 752.512 864.755 750.406 Q862.417 748.299 858.412 748.299 Q856.537 748.299 854.662 748.716 Q852.81 749.133 850.866 750.012 L850.866 732.651 Z" fill="#000000" fill-rule="evenodd" fill-opacity="1" /><path clip-path="url(#clip420)" d="M1799.21 735.73 Q1795.6 735.73 1793.77 739.295 Q1791.96 742.836 1791.96 749.966 Q1791.96 757.072 1793.77 760.637 Q1795.6 764.179 1799.21 764.179 Q1802.84 764.179 1804.65 760.637 Q1806.48 757.072 1806.48 749.966 Q1806.48 742.836 1804.65 739.295 Q1802.84 735.73 1799.21 735.73 M1799.21 732.026 Q1805.02 732.026 1808.08 736.633 Q1811.15 741.216 1811.15 749.966 Q1811.15 758.693 1808.08 763.299 Q1805.02 767.882 1799.21 767.882 Q1793.4 767.882 1790.32 763.299 Q1787.27 758.693 1787.27 749.966 Q1787.27 741.216 1790.32 736.633 Q1793.4 732.026 1799.21 732.026 Z" fill="#000000" fill-rule="evenodd" fill-opacity="1" /><path clip-path="url(#clip420)" d="M1819.37 761.332 L1824.26 761.332 L1824.26 767.211 L1819.37 767.211 L1819.37 761.332 Z" fill="#000000" fill-rule="evenodd" fill-opacity="1" /><path clip-path="url(#clip420)" d="M1844.44 735.73 Q1840.83 735.73 1839 739.295 Q1837.2 742.836 1837.2 749.966 Q1837.2 757.072 1839 760.637 Q1840.83 764.179 1844.44 764.179 Q1848.08 764.179 1849.88 760.637 Q1851.71 757.072 1851.71 749.966 Q1851.71 742.836 1849.88 739.295 Q1848.08 735.73 1844.44 735.73 M1844.44 732.026 Q1850.25 732.026 1853.31 736.633 Q1856.39 741.216 1856.39 749.966 Q1856.39 758.693 1853.31 763.299 Q1850.25 767.882 1844.44 767.882 Q1838.63 767.882 1835.55 763.299 Q1832.5 758.693 1832.5 749.966 Q1832.5 741.216 1835.55 736.633 Q1838.63 732.026 1844.44 732.026 Z" fill="#000000" fill-rule="evenodd" fill-opacity="1" /><path clip-path="url(#clip420)" d="M1864.65 732.651 L1883.01 732.651 L1883.01 736.586 L1868.93 736.586 L1868.93 745.058 Q1869.95 744.711 1870.97 744.549 Q1871.99 744.364 1873.01 744.364 Q1878.79 744.364 1882.17 747.535 Q1885.55 750.707 1885.55 756.123 Q1885.55 761.702 1882.08 764.804 Q1878.61 767.882 1872.29 767.882 Q1870.11 767.882 1867.84 767.512 Q1865.6 767.142 1863.19 766.401 L1863.19 761.702 Q1865.27 762.836 1867.5 763.392 Q1869.72 763.947 1872.2 763.947 Q1876.2 763.947 1878.54 761.841 Q1880.88 759.734 1880.88 756.123 Q1880.88 752.512 1878.54 750.406 Q1876.2 748.299 1872.2 748.299 Q1870.32 748.299 1868.45 748.716 Q1866.59 749.133 1864.65 750.012 L1864.65 732.651 Z" fill="#000000" fill-rule="evenodd" fill-opacity="1" /><path clip-path="url(#clip420)" d="M2315.06 735.73 Q2311.45 735.73 2309.62 739.295 Q2307.81 742.836 2307.81 749.966 Q2307.81 757.072 2309.62 760.637 Q2311.45 764.179 2315.06 764.179 Q2318.69 764.179 2320.5 760.637 Q2322.33 757.072 2322.33 749.966 Q2322.33 742.836 2320.5 739.295 Q2318.69 735.73 2315.06 735.73 M2315.06 732.026 Q2320.87 732.026 2323.93 736.633 Q2327 741.216 2327 749.966 Q2327 758.693 2323.93 763.299 Q2320.87 767.882 2315.06 767.882 Q2309.25 767.882 2306.17 763.299 Q2303.11 758.693 2303.11 749.966 Q2303.11 741.216 2306.17 736.633 Q2309.25 732.026 2315.06 732.026 Z" fill="#000000" fill-rule="evenodd" fill-opacity="1" /><path clip-path="url(#clip420)" d="M2335.22 761.332 L2340.11 761.332 L2340.11 767.211 L2335.22 767.211 L2335.22 761.332 Z" fill="#000000" fill-rule="evenodd" fill-opacity="1" /><path clip-path="url(#clip420)" d="M2351.1 763.276 L2358.74 763.276 L2358.74 736.91 L2350.43 738.577 L2350.43 734.318 L2358.69 732.651 L2363.37 732.651 L2363.37 763.276 L2371.01 763.276 L2371.01 767.211 L2351.1 767.211 L2351.1 763.276 Z" fill="#000000" fill-rule="evenodd" fill-opacity="1" /><path clip-path="url(#clip420)" d="M2390.45 735.73 Q2386.84 735.73 2385.01 739.295 Q2383.21 742.836 2383.21 749.966 Q2383.21 757.072 2385.01 760.637 Q2386.84 764.179 2390.45 764.179 Q2394.09 764.179 2395.89 760.637 Q2397.72 757.072 2397.72 749.966 Q2397.72 742.836 2395.89 739.295 Q2394.09 735.73 2390.45 735.73 M2390.45 732.026 Q2396.26 732.026 2399.32 736.633 Q2402.4 741.216 2402.4 749.966 Q2402.4 758.693 2399.32 763.299 Q2396.26 767.882 2390.45 767.882 Q2384.64 767.882 2381.56 763.299 Q2378.51 758.693 2378.51 749.966 Q2378.51 741.216 2381.56 736.633 Q2384.64 732.026 2390.45 732.026 Z" fill="#000000" fill-rule="evenodd" fill-opacity="1" /><path clip-path="url(#clip420)" d="M1130.73 1520.52 L1140.31 1520.52 L1152.44 1552.86 L1164.63 1520.52 L1174.21 1520.52 L1174.21 1568.04 L1167.94 1568.04 L1167.94 1526.32 L1155.68 1558.91 L1149.22 1558.91 L1136.97 1526.32 L1136.97 1568.04 L1130.73 1568.04 L1130.73 1520.52 Z" fill="#000000" fill-rule="evenodd" fill-opacity="1" /><path clip-path="url(#clip420)" d="M1186.11 1553.98 L1186.11 1532.4 L1191.97 1532.4 L1191.97 1553.75 Q1191.97 1558.81 1193.94 1561.36 Q1195.91 1563.87 1199.86 1563.87 Q1204.6 1563.87 1207.34 1560.85 Q1210.11 1557.83 1210.11 1552.61 L1210.11 1532.4 L1215.97 1532.4 L1215.97 1568.04 L1210.11 1568.04 L1210.11 1562.57 Q1207.98 1565.82 1205.14 1567.41 Q1202.34 1568.97 1198.62 1568.97 Q1192.48 1568.97 1189.29 1565.15 Q1186.11 1561.33 1186.11 1553.98 M1200.85 1531.54 L1200.85 1531.54 Z" fill="#000000" fill-rule="evenodd" fill-opacity="1" /><path clip-path="url(#clip420)" d="M1233.82 1522.27 L1233.82 1532.4 L1245.88 1532.4 L1245.88 1536.95 L1233.82 1536.95 L1233.82 1556.3 Q1233.82 1560.66 1235 1561.9 Q1236.21 1563.14 1239.87 1563.14 L1245.88 1563.14 L1245.88 1568.04 L1239.87 1568.04 Q1233.09 1568.04 1230.51 1565.53 Q1227.93 1562.98 1227.93 1556.3 L1227.93 1536.95 L1223.64 1536.95 L1223.64 1532.4 L1227.93 1532.4 L1227.93 1522.27 L1233.82 1522.27 Z" fill="#000000" fill-rule="evenodd" fill-opacity="1" /><path clip-path="url(#clip420)" d="M1269.79 1550.12 Q1262.69 1550.12 1259.95 1551.75 Q1257.22 1553.37 1257.22 1557.29 Q1257.22 1560.4 1259.25 1562.25 Q1261.32 1564.07 1264.85 1564.07 Q1269.72 1564.07 1272.65 1560.63 Q1275.61 1557.16 1275.61 1551.43 L1275.61 1550.12 L1269.79 1550.12 M1281.47 1547.71 L1281.47 1568.04 L1275.61 1568.04 L1275.61 1562.63 Q1273.61 1565.88 1270.62 1567.44 Q1267.62 1568.97 1263.29 1568.97 Q1257.82 1568.97 1254.57 1565.91 Q1251.36 1562.82 1251.36 1557.67 Q1251.36 1551.65 1255.37 1548.6 Q1259.41 1545.54 1267.4 1545.54 L1275.61 1545.54 L1275.61 1544.97 Q1275.61 1540.93 1272.94 1538.73 Q1270.3 1536.5 1265.49 1536.5 Q1262.44 1536.5 1259.54 1537.23 Q1256.64 1537.97 1253.97 1539.43 L1253.97 1534.02 Q1257.18 1532.78 1260.21 1532.17 Q1263.23 1531.54 1266.1 1531.54 Q1273.83 1531.54 1277.65 1535.55 Q1281.47 1539.56 1281.47 1547.71 Z" fill="#000000" fill-rule="evenodd" fill-opacity="1" /><path clip-path="url(#clip420)" d="M1323.16 1546.53 L1323.16 1568.04 L1317.31 1568.04 L1317.31 1546.72 Q1317.31 1541.66 1315.33 1539.14 Q1313.36 1536.63 1309.41 1536.63 Q1304.67 1536.63 1301.93 1539.65 Q1299.2 1542.68 1299.2 1547.9 L1299.2 1568.04 L1293.31 1568.04 L1293.31 1532.4 L1299.2 1532.4 L1299.2 1537.93 Q1301.3 1534.72 1304.13 1533.13 Q1307 1531.54 1310.72 1531.54 Q1316.86 1531.54 1320.01 1535.36 Q1323.16 1539.14 1323.16 1546.53 Z" fill="#000000" fill-rule="evenodd" fill-opacity="1" /><path clip-path="url(#clip420)" d="M1340.64 1522.27 L1340.64 1532.4 L1352.7 1532.4 L1352.7 1536.95 L1340.64 1536.95 L1340.64 1556.3 Q1340.64 1560.66 1341.82 1561.9 Q1343.03 1563.14 1346.69 1563.14 L1352.7 1563.14 L1352.7 1568.04 L1346.69 1568.04 Q1339.91 1568.04 1337.33 1565.53 Q1334.75 1562.98 1334.75 1556.3 L1334.75 1536.95 L1330.45 1536.95 L1330.45 1532.4 L1334.75 1532.4 L1334.75 1522.27 L1340.64 1522.27 Z" fill="#000000" fill-rule="evenodd" fill-opacity="1" /><path clip-path="url(#clip420)" d="M1386.92 1522.27 L1386.92 1532.4 L1398.98 1532.4 L1398.98 1536.95 L1386.92 1536.95 L1386.92 1556.3 Q1386.92 1560.66 1388.09 1561.9 Q1389.3 1563.14 1392.96 1563.14 L1398.98 1563.14 L1398.98 1568.04 L1392.96 1568.04 Q1386.18 1568.04 1383.61 1565.53 Q1381.03 1562.98 1381.03 1556.3 L1381.03 1536.95 L1376.73 1536.95 L1376.73 1532.4 L1381.03 1532.4 L1381.03 1522.27 L1386.92 1522.27 Z" fill="#000000" fill-rule="evenodd" fill-opacity="1" /><path clip-path="url(#clip420)" d="M1427.34 1537.87 Q1426.35 1537.3 1425.17 1537.04 Q1424.03 1536.76 1422.63 1536.76 Q1417.66 1536.76 1414.99 1540 Q1412.35 1543.22 1412.35 1549.27 L1412.35 1568.04 L1406.46 1568.04 L1406.46 1532.4 L1412.35 1532.4 L1412.35 1537.93 Q1414.19 1534.69 1417.15 1533.13 Q1420.11 1531.54 1424.35 1531.54 Q1424.95 1531.54 1425.68 1531.63 Q1426.42 1531.7 1427.31 1531.85 L1427.34 1537.87 Z" fill="#000000" fill-rule="evenodd" fill-opacity="1" /><path clip-path="url(#clip420)" d="M1449.68 1550.12 Q1442.58 1550.12 1439.85 1551.75 Q1437.11 1553.37 1437.11 1557.29 Q1437.11 1560.4 1439.15 1562.25 Q1441.22 1564.07 1444.75 1564.07 Q1449.62 1564.07 1452.55 1560.63 Q1455.51 1557.16 1455.51 1551.43 L1455.51 1550.12 L1449.68 1550.12 M1461.36 1547.71 L1461.36 1568.04 L1455.51 1568.04 L1455.51 1562.63 Q1453.5 1565.88 1450.51 1567.44 Q1447.52 1568.97 1443.19 1568.97 Q1437.72 1568.97 1434.47 1565.91 Q1431.25 1562.82 1431.25 1557.67 Q1431.25 1551.65 1435.26 1548.6 Q1439.31 1545.54 1447.3 1545.54 L1455.51 1545.54 L1455.51 1544.97 Q1455.51 1540.93 1452.83 1538.73 Q1450.19 1536.5 1445.39 1536.5 Q1442.33 1536.5 1439.43 1537.23 Q1436.54 1537.97 1433.86 1539.43 L1433.86 1534.02 Q1437.08 1532.78 1440.1 1532.17 Q1443.13 1531.54 1445.99 1531.54 Q1453.72 1531.54 1457.54 1535.55 Q1461.36 1539.56 1461.36 1547.71 Z" fill="#000000" fill-rule="evenodd" fill-opacity="1" /><path clip-path="url(#clip420)" d="M1473.43 1532.4 L1479.28 1532.4 L1479.28 1568.04 L1473.43 1568.04 L1473.43 1532.4 M1473.43 1518.52 L1479.28 1518.52 L1479.28 1525.93 L1473.43 1525.93 L1473.43 1518.52 Z" fill="#000000" fill-rule="evenodd" fill-opacity="1" /><path clip-path="url(#clip420)" d="M1497.33 1522.27 L1497.33 1532.4 L1509.39 1532.4 L1509.39 1536.95 L1497.33 1536.95 L1497.33 1556.3 Q1497.33 1560.66 1498.51 1561.9 Q1499.72 1563.14 1503.38 1563.14 L1509.39 1563.14 L1509.39 1568.04 L1503.38 1568.04 Q1496.6 1568.04 1494.02 1565.53 Q1491.44 1562.98 1491.44 1556.3 L1491.44 1536.95 L1487.14 1536.95 L1487.14 1532.4 L1491.44 1532.4 L1491.44 1522.27 L1497.33 1522.27 Z" fill="#000000" fill-rule="evenodd" fill-opacity="1" /><polyline clip-path="url(#clip422)" style="stroke:#000000; stroke-linecap:butt; stroke-linejoin:round; stroke-width:2; stroke-opacity:0.1; fill:none" points="
  287.366,1396.09 2352.76,1396.09 
  "/>
<polyline clip-path="url(#clip422)" style="stroke:#000000; stroke-linecap:butt; stroke-linejoin:round; stroke-width:2; stroke-opacity:0.1; fill:none" points="
  287.366,1050.45 2352.76,1050.45 
  "/>
<polyline clip-path="url(#clip422)" style="stroke:#000000; stroke-linecap:butt; stroke-linejoin:round; stroke-width:2; stroke-opacity:0.1; fill:none" points="
  287.366,359.17 2352.76,359.17 
  "/>
<polyline clip-path="url(#clip420)" style="stroke:#000000; stroke-linecap:butt; stroke-linejoin:round; stroke-width:4; stroke-opacity:1; fill:none" points="
  1320.06,1423.18 1320.06,47.2441 
  "/>
<polyline clip-path="url(#clip420)" style="stroke:#000000; stroke-linecap:butt; stroke-linejoin:round; stroke-width:4; stroke-opacity:1; fill:none" points="
  1301.16,1396.09 1338.96,1396.09 
  "/>
<polyline clip-path="url(#clip420)" style="stroke:#000000; stroke-linecap:butt; stroke-linejoin:round; stroke-width:4; stroke-opacity:1; fill:none" points="
  1301.16,1050.45 1338.96,1050.45 
  "/>
<polyline clip-path="url(#clip420)" style="stroke:#000000; stroke-linecap:butt; stroke-linejoin:round; stroke-width:4; stroke-opacity:1; fill:none" points="
  1301.16,359.17 1338.96,359.17 
  "/>
<path clip-path="url(#clip420)" d="M1146.96 1396.54 L1176.63 1396.54 L1176.63 1400.48 L1146.96 1400.48 L1146.96 1396.54 Z" fill="#000000" fill-rule="evenodd" fill-opacity="1" /><path clip-path="url(#clip420)" d="M1196.72 1381.89 Q1193.11 1381.89 1191.28 1385.46 Q1189.48 1389 1189.48 1396.13 Q1189.48 1403.23 1191.28 1406.8 Q1193.11 1410.34 1196.72 1410.34 Q1200.36 1410.34 1202.16 1406.8 Q1203.99 1403.23 1203.99 1396.13 Q1203.99 1389 1202.16 1385.46 Q1200.36 1381.89 1196.72 1381.89 M1196.72 1378.19 Q1202.53 1378.19 1205.59 1382.79 Q1208.67 1387.38 1208.67 1396.13 Q1208.67 1404.85 1205.59 1409.46 Q1202.53 1414.04 1196.72 1414.04 Q1190.91 1414.04 1187.83 1409.46 Q1184.78 1404.85 1184.78 1396.13 Q1184.78 1387.38 1187.83 1382.79 Q1190.91 1378.19 1196.72 1378.19 Z" fill="#000000" fill-rule="evenodd" fill-opacity="1" /><path clip-path="url(#clip420)" d="M1216.89 1407.49 L1221.77 1407.49 L1221.77 1413.37 L1216.89 1413.37 L1216.89 1407.49 Z" fill="#000000" fill-rule="evenodd" fill-opacity="1" /><path clip-path="url(#clip420)" d="M1232.76 1409.44 L1240.4 1409.44 L1240.4 1383.07 L1232.09 1384.74 L1232.09 1380.48 L1240.36 1378.81 L1245.03 1378.81 L1245.03 1409.44 L1252.67 1409.44 L1252.67 1413.37 L1232.76 1413.37 L1232.76 1409.44 Z" fill="#000000" fill-rule="evenodd" fill-opacity="1" /><path clip-path="url(#clip420)" d="M1272.12 1381.89 Q1268.51 1381.89 1266.68 1385.46 Q1264.87 1389 1264.87 1396.13 Q1264.87 1403.23 1266.68 1406.8 Q1268.51 1410.34 1272.12 1410.34 Q1275.75 1410.34 1277.56 1406.8 Q1279.39 1403.23 1279.39 1396.13 Q1279.39 1389 1277.56 1385.46 Q1275.75 1381.89 1272.12 1381.89 M1272.12 1378.19 Q1277.93 1378.19 1280.98 1382.79 Q1284.06 1387.38 1284.06 1396.13 Q1284.06 1404.85 1280.98 1409.46 Q1277.93 1414.04 1272.12 1414.04 Q1266.31 1414.04 1263.23 1409.46 Q1260.17 1404.85 1260.17 1396.13 Q1260.17 1387.38 1263.23 1382.79 Q1266.31 1378.19 1272.12 1378.19 Z" fill="#000000" fill-rule="evenodd" fill-opacity="1" /><path clip-path="url(#clip420)" d="M1147.95 1050.9 L1177.63 1050.9 L1177.63 1054.84 L1147.95 1054.84 L1147.95 1050.9 Z" fill="#000000" fill-rule="evenodd" fill-opacity="1" /><path clip-path="url(#clip420)" d="M1197.72 1036.25 Q1194.11 1036.25 1192.28 1039.82 Q1190.47 1043.36 1190.47 1050.49 Q1190.47 1057.59 1192.28 1061.16 Q1194.11 1064.7 1197.72 1064.7 Q1201.35 1064.7 1203.16 1061.16 Q1204.99 1057.59 1204.99 1050.49 Q1204.99 1043.36 1203.16 1039.82 Q1201.35 1036.25 1197.72 1036.25 M1197.72 1032.55 Q1203.53 1032.55 1206.58 1037.15 Q1209.66 1041.74 1209.66 1050.49 Q1209.66 1059.21 1206.58 1063.82 Q1203.53 1068.4 1197.72 1068.4 Q1191.91 1068.4 1188.83 1063.82 Q1185.77 1059.21 1185.77 1050.49 Q1185.77 1041.74 1188.83 1037.15 Q1191.91 1032.55 1197.72 1032.55 Z" fill="#000000" fill-rule="evenodd" fill-opacity="1" /><path clip-path="url(#clip420)" d="M1217.88 1061.85 L1222.76 1061.85 L1222.76 1067.73 L1217.88 1067.73 L1217.88 1061.85 Z" fill="#000000" fill-rule="evenodd" fill-opacity="1" /><path clip-path="url(#clip420)" d="M1242.95 1036.25 Q1239.34 1036.25 1237.51 1039.82 Q1235.7 1043.36 1235.7 1050.49 Q1235.7 1057.59 1237.51 1061.16 Q1239.34 1064.7 1242.95 1064.7 Q1246.58 1064.7 1248.39 1061.16 Q1250.22 1057.59 1250.22 1050.49 Q1250.22 1043.36 1248.39 1039.82 Q1246.58 1036.25 1242.95 1036.25 M1242.95 1032.55 Q1248.76 1032.55 1251.82 1037.15 Q1254.89 1041.74 1254.89 1050.49 Q1254.89 1059.21 1251.82 1063.82 Q1248.76 1068.4 1242.95 1068.4 Q1237.14 1068.4 1234.06 1063.82 Q1231.01 1059.21 1231.01 1050.49 Q1231.01 1041.74 1234.06 1037.15 Q1237.14 1032.55 1242.95 1032.55 Z" fill="#000000" fill-rule="evenodd" fill-opacity="1" /><path clip-path="url(#clip420)" d="M1263.16 1033.17 L1281.51 1033.17 L1281.51 1037.11 L1267.44 1037.11 L1267.44 1045.58 Q1268.46 1045.23 1269.48 1045.07 Q1270.5 1044.88 1271.51 1044.88 Q1277.3 1044.88 1280.68 1048.06 Q1284.06 1051.23 1284.06 1056.64 Q1284.06 1062.22 1280.59 1065.32 Q1277.12 1068.4 1270.8 1068.4 Q1268.62 1068.4 1266.35 1068.03 Q1264.11 1067.66 1261.7 1066.92 L1261.7 1062.22 Q1263.78 1063.36 1266.01 1063.91 Q1268.23 1064.47 1270.7 1064.47 Q1274.71 1064.47 1277.05 1062.36 Q1279.39 1060.26 1279.39 1056.64 Q1279.39 1053.03 1277.05 1050.93 Q1274.71 1048.82 1270.7 1048.82 Q1268.83 1048.82 1266.95 1049.24 Q1265.1 1049.65 1263.16 1050.53 L1263.16 1033.17 Z" fill="#000000" fill-rule="evenodd" fill-opacity="1" /><path clip-path="url(#clip420)" d="M1197.72 344.969 Q1194.11 344.969 1192.28 348.534 Q1190.47 352.075 1190.47 359.205 Q1190.47 366.311 1192.28 369.876 Q1194.11 373.418 1197.72 373.418 Q1201.35 373.418 1203.16 369.876 Q1204.99 366.311 1204.99 359.205 Q1204.99 352.075 1203.16 348.534 Q1201.35 344.969 1197.72 344.969 M1197.72 341.265 Q1203.53 341.265 1206.58 345.872 Q1209.66 350.455 1209.66 359.205 Q1209.66 367.932 1206.58 372.538 Q1203.53 377.122 1197.72 377.122 Q1191.91 377.122 1188.83 372.538 Q1185.77 367.932 1185.77 359.205 Q1185.77 350.455 1188.83 345.872 Q1191.91 341.265 1197.72 341.265 Z" fill="#000000" fill-rule="evenodd" fill-opacity="1" /><path clip-path="url(#clip420)" d="M1217.88 370.571 L1222.76 370.571 L1222.76 376.45 L1217.88 376.45 L1217.88 370.571 Z" fill="#000000" fill-rule="evenodd" fill-opacity="1" /><path clip-path="url(#clip420)" d="M1242.95 344.969 Q1239.34 344.969 1237.51 348.534 Q1235.7 352.075 1235.7 359.205 Q1235.7 366.311 1237.51 369.876 Q1239.34 373.418 1242.95 373.418 Q1246.58 373.418 1248.39 369.876 Q1250.22 366.311 1250.22 359.205 Q1250.22 352.075 1248.39 348.534 Q1246.58 344.969 1242.95 344.969 M1242.95 341.265 Q1248.76 341.265 1251.82 345.872 Q1254.89 350.455 1254.89 359.205 Q1254.89 367.932 1251.82 372.538 Q1248.76 377.122 1242.95 377.122 Q1237.14 377.122 1234.06 372.538 Q1231.01 367.932 1231.01 359.205 Q1231.01 350.455 1234.06 345.872 Q1237.14 341.265 1242.95 341.265 Z" fill="#000000" fill-rule="evenodd" fill-opacity="1" /><path clip-path="url(#clip420)" d="M1263.16 341.89 L1281.51 341.89 L1281.51 345.825 L1267.44 345.825 L1267.44 354.298 Q1268.46 353.95 1269.48 353.788 Q1270.5 353.603 1271.51 353.603 Q1277.3 353.603 1280.68 356.774 Q1284.06 359.946 1284.06 365.362 Q1284.06 370.941 1280.59 374.043 Q1277.12 377.122 1270.8 377.122 Q1268.62 377.122 1266.35 376.751 Q1264.11 376.381 1261.7 375.64 L1261.7 370.941 Q1263.78 372.075 1266.01 372.631 Q1268.23 373.186 1270.7 373.186 Q1274.71 373.186 1277.05 371.08 Q1279.39 368.973 1279.39 365.362 Q1279.39 361.751 1277.05 359.645 Q1274.71 357.538 1270.7 357.538 Q1268.83 357.538 1266.95 357.955 Q1265.1 358.372 1263.16 359.251 L1263.16 341.89 Z" fill="#000000" fill-rule="evenodd" fill-opacity="1" /><path clip-path="url(#clip420)" d="M16.4842 984.923 L16.4842 978.493 L64.0042 978.493 L64.0042 984.923 L16.4842 984.923 Z" fill="#000000" fill-rule="evenodd" fill-opacity="1" /><path clip-path="url(#clip420)" d="M42.4881 936.321 L64.0042 936.321 L64.0042 942.177 L42.679 942.177 Q37.6183 942.177 35.1038 944.15 Q32.5894 946.124 32.5894 950.07 Q32.5894 954.813 35.6131 957.55 Q38.6368 960.287 43.8567 960.287 L64.0042 960.287 L64.0042 966.176 L28.3562 966.176 L28.3562 960.287 L33.8944 960.287 Q30.6797 958.187 29.0883 955.354 Q27.4968 952.489 27.4968 948.766 Q27.4968 942.623 31.3163 939.472 Q35.1038 936.321 42.4881 936.321 Z" fill="#000000" fill-rule="evenodd" fill-opacity="1" /><path clip-path="url(#clip420)" d="M28.3562 928.841 L28.3562 922.634 L58.275 911.494 L28.3562 900.354 L28.3562 894.148 L64.0042 907.516 L64.0042 915.473 L28.3562 928.841 Z" fill="#000000" fill-rule="evenodd" fill-opacity="1" /><path clip-path="url(#clip420)" d="M46.0847 869.863 Q46.0847 876.96 47.7079 879.698 Q49.3312 882.435 53.2461 882.435 Q56.3653 882.435 58.2114 880.398 Q60.0256 878.329 60.0256 874.796 Q60.0256 869.926 56.5881 866.998 Q53.1188 864.038 47.3897 864.038 L46.0847 864.038 L46.0847 869.863 M43.6657 858.182 L64.0042 858.182 L64.0042 864.038 L58.5933 864.038 Q61.8398 866.043 63.3994 869.035 Q64.9272 872.027 64.9272 876.356 Q64.9272 881.83 61.8716 885.077 Q58.7843 888.291 53.6281 888.291 Q47.6125 888.291 44.5569 884.281 Q41.5014 880.239 41.5014 872.25 L41.5014 864.038 L40.9285 864.038 Q36.8862 864.038 34.6901 866.712 Q32.4621 869.353 32.4621 874.159 Q32.4621 877.215 33.1941 880.111 Q33.9262 883.008 35.3903 885.681 L29.9795 885.681 Q28.7381 882.467 28.1334 879.443 Q27.4968 876.419 27.4968 873.555 Q27.4968 865.82 31.5072 862.001 Q35.5176 858.182 43.6657 858.182 Z" fill="#000000" fill-rule="evenodd" fill-opacity="1" /><path clip-path="url(#clip420)" d="M29.4065 823.393 L34.9447 823.393 Q33.6716 825.876 33.035 828.549 Q32.3984 831.223 32.3984 834.087 Q32.3984 838.448 33.7352 840.644 Q35.072 842.808 37.7456 842.808 Q39.7826 842.808 40.9603 841.249 Q42.1061 839.689 43.1565 834.979 L43.6021 832.973 Q44.9389 826.735 47.3897 824.125 Q49.8086 821.483 54.1691 821.483 Q59.1344 821.483 62.0308 825.43 Q64.9272 829.345 64.9272 836.22 Q64.9272 839.084 64.3543 842.204 Q63.8132 845.291 62.6992 848.728 L56.6518 848.728 Q58.3387 845.482 59.198 842.331 Q60.0256 839.18 60.0256 836.093 Q60.0256 831.955 58.6251 829.727 Q57.1929 827.499 54.6147 827.499 Q52.2276 827.499 50.9545 829.122 Q49.6813 830.713 48.5037 836.156 L48.0262 838.193 Q46.8804 843.636 44.5251 846.055 Q42.138 848.474 38.0002 848.474 Q32.9713 848.474 30.2341 844.909 Q27.4968 841.344 27.4968 834.788 Q27.4968 831.541 27.9743 828.676 Q28.4517 825.812 29.4065 823.393 Z" fill="#000000" fill-rule="evenodd" fill-opacity="1" /><path clip-path="url(#clip420)" d="M28.3562 812.157 L28.3562 806.301 L64.0042 806.301 L64.0042 812.157 L28.3562 812.157 M14.479 812.157 L14.479 806.301 L21.895 806.301 L21.895 812.157 L14.479 812.157 Z" fill="#000000" fill-rule="evenodd" fill-opacity="1" /><path clip-path="url(#clip420)" d="M32.4621 780.233 Q32.4621 784.944 36.1542 787.681 Q39.8145 790.419 46.212 790.419 Q52.6095 790.419 56.3017 787.713 Q59.9619 784.976 59.9619 780.233 Q59.9619 775.555 56.2698 772.817 Q52.5777 770.08 46.212 770.08 Q39.8781 770.08 36.186 772.817 Q32.4621 775.555 32.4621 780.233 M27.4968 780.233 Q27.4968 772.595 32.4621 768.234 Q37.4273 763.874 46.212 763.874 Q54.9649 763.874 59.9619 768.234 Q64.9272 772.595 64.9272 780.233 Q64.9272 787.904 59.9619 792.265 Q54.9649 796.593 46.212 796.593 Q37.4273 796.593 32.4621 792.265 Q27.4968 787.904 27.4968 780.233 Z" fill="#000000" fill-rule="evenodd" fill-opacity="1" /><path clip-path="url(#clip420)" d="M42.4881 724.533 L64.0042 724.533 L64.0042 730.39 L42.679 730.39 Q37.6183 730.39 35.1038 732.363 Q32.5894 734.337 32.5894 738.283 Q32.5894 743.026 35.6131 745.763 Q38.6368 748.5 43.8567 748.5 L64.0042 748.5 L64.0042 754.389 L28.3562 754.389 L28.3562 748.5 L33.8944 748.5 Q30.6797 746.4 29.0883 743.567 Q27.4968 740.702 27.4968 736.978 Q27.4968 730.836 31.3163 727.685 Q35.1038 724.533 42.4881 724.533 Z" fill="#000000" fill-rule="evenodd" fill-opacity="1" /><path clip-path="url(#clip420)" d="M14.479 674.085 L19.3487 674.085 L19.3487 679.687 Q19.3487 682.838 20.6219 684.079 Q21.895 685.289 25.2052 685.289 L28.3562 685.289 L28.3562 675.645 L32.9077 675.645 L32.9077 685.289 L64.0042 685.289 L64.0042 691.177 L32.9077 691.177 L32.9077 696.779 L28.3562 696.779 L28.3562 691.177 L25.8736 691.177 Q19.9216 691.177 17.2162 688.408 Q14.479 685.639 14.479 679.623 L14.479 674.085 Z" fill="#000000" fill-rule="evenodd" fill-opacity="1" /><path clip-path="url(#clip420)" d="M28.3562 669.184 L28.3562 663.327 L64.0042 663.327 L64.0042 669.184 L28.3562 669.184 M14.479 669.184 L14.479 663.327 L21.895 663.327 L21.895 669.184 L14.479 669.184 Z" fill="#000000" fill-rule="evenodd" fill-opacity="1" /><path clip-path="url(#clip420)" d="M18.2347 645.28 L28.3562 645.28 L28.3562 633.217 L32.9077 633.217 L32.9077 645.28 L52.2594 645.28 Q56.6199 645.28 57.8613 644.103 Q59.1026 642.893 59.1026 639.233 L59.1026 633.217 L64.0042 633.217 L64.0042 639.233 Q64.0042 646.013 61.4897 648.591 Q58.9434 651.169 52.2594 651.169 L32.9077 651.169 L32.9077 655.466 L28.3562 655.466 L28.3562 651.169 L18.2347 651.169 L18.2347 645.28 Z" fill="#000000" fill-rule="evenodd" fill-opacity="1" /><path clip-path="url(#clip420)" d="M42.4881 595.883 L64.0042 595.883 L64.0042 601.739 L42.679 601.739 Q37.6183 601.739 35.1038 603.712 Q32.5894 605.686 32.5894 609.632 Q32.5894 614.375 35.6131 617.112 Q38.6368 619.849 43.8567 619.849 L64.0042 619.849 L64.0042 625.738 L28.3562 625.738 L28.3562 619.849 L33.8944 619.849 Q30.6797 617.749 29.0883 614.916 Q27.4968 612.051 27.4968 608.328 Q27.4968 602.185 31.3163 599.034 Q35.1038 595.883 42.4881 595.883 Z" fill="#000000" fill-rule="evenodd" fill-opacity="1" /><path clip-path="url(#clip420)" d="M44.7161 553.71 L47.5806 553.71 L47.5806 580.637 Q53.6281 580.255 56.8109 577.008 Q59.9619 573.73 59.9619 567.905 Q59.9619 564.531 59.1344 561.38 Q58.3069 558.198 56.6518 555.078 L62.1899 555.078 Q63.5267 558.229 64.227 561.54 Q64.9272 564.85 64.9272 568.255 Q64.9272 576.785 59.9619 581.783 Q54.9967 586.748 46.5303 586.748 Q37.7774 586.748 32.6531 582.037 Q27.4968 577.295 27.4968 569.274 Q27.4968 562.081 32.1438 557.911 Q36.7589 553.71 44.7161 553.71 M42.9973 559.566 Q38.1912 559.63 35.3266 562.272 Q32.4621 564.882 32.4621 569.21 Q32.4621 574.112 35.2312 577.072 Q38.0002 580 43.0292 580.446 L42.9973 559.566 Z" fill="#000000" fill-rule="evenodd" fill-opacity="1" /><path clip-path="url(#clip420)" d="M29.4065 521.372 L34.9447 521.372 Q33.6716 523.855 33.035 526.528 Q32.3984 529.202 32.3984 532.066 Q32.3984 536.427 33.7352 538.623 Q35.072 540.787 37.7456 540.787 Q39.7826 540.787 40.9603 539.228 Q42.1061 537.668 43.1565 532.958 L43.6021 530.952 Q44.9389 524.714 47.3897 522.104 Q49.8086 519.462 54.1691 519.462 Q59.1344 519.462 62.0308 523.409 Q64.9272 527.324 64.9272 534.199 Q64.9272 537.063 64.3543 540.183 Q63.8132 543.27 62.6992 546.707 L56.6518 546.707 Q58.3387 543.461 59.198 540.31 Q60.0256 537.159 60.0256 534.072 Q60.0256 529.934 58.6251 527.706 Q57.1929 525.478 54.6147 525.478 Q52.2276 525.478 50.9545 527.101 Q49.6813 528.693 48.5037 534.135 L48.0262 536.172 Q46.8804 541.615 44.5251 544.034 Q42.138 546.453 38.0002 546.453 Q32.9713 546.453 30.2341 542.888 Q27.4968 539.323 27.4968 532.767 Q27.4968 529.52 27.9743 526.656 Q28.4517 523.791 29.4065 521.372 Z" fill="#000000" fill-rule="evenodd" fill-opacity="1" /><path clip-path="url(#clip420)" d="M29.4065 487.411 L34.9447 487.411 Q33.6716 489.894 33.035 492.567 Q32.3984 495.241 32.3984 498.105 Q32.3984 502.466 33.7352 504.662 Q35.072 506.826 37.7456 506.826 Q39.7826 506.826 40.9603 505.267 Q42.1061 503.707 43.1565 498.997 L43.6021 496.991 Q44.9389 490.753 47.3897 488.143 Q49.8086 485.501 54.1691 485.501 Q59.1344 485.501 62.0308 489.448 Q64.9272 493.363 64.9272 500.238 Q64.9272 503.102 64.3543 506.222 Q63.8132 509.309 62.6992 512.746 L56.6518 512.746 Q58.3387 509.5 59.198 506.349 Q60.0256 503.198 60.0256 500.111 Q60.0256 495.973 58.6251 493.745 Q57.1929 491.517 54.6147 491.517 Q52.2276 491.517 50.9545 493.14 Q49.6813 494.731 48.5037 500.174 L48.0262 502.211 Q46.8804 507.654 44.5251 510.073 Q42.138 512.492 38.0002 512.492 Q32.9713 512.492 30.2341 508.927 Q27.4968 505.362 27.4968 498.806 Q27.4968 495.559 27.9743 492.694 Q28.4517 489.83 29.4065 487.411 Z" fill="#000000" fill-rule="evenodd" fill-opacity="1" /><polyline clip-path="url(#clip422)" style="stroke:#009af9; stroke-linecap:butt; stroke-linejoin:round; stroke-width:4; stroke-opacity:1; fill:none" points="
  287.366,86.1857 297.451,97.6651 307.536,109.052 400.788,209.885 494.039,302.367 550.079,353.756 606.119,401.901 653.501,440.018 700.882,475.716 752.351,511.705 
  803.821,544.742 851.271,572.544 898.721,597.767 949.593,621.909 1000.46,643.018 1059.4,663.647 1118.34,680.129 1170.72,691.272 1223.1,699.1 1269.03,703.229 
  1314.96,704.795 1365.04,703.582 1415.12,699.322 1465.49,691.97 1515.87,681.551 1571.57,666.478 1627.26,647.699 1680.26,626.417 1733.25,601.838 1788.35,572.824 
  1843.45,540.33 1889.83,510.318 1936.22,477.909 1992.85,435.147 2049.48,388.937 2102.71,342.423 2155.94,292.997 2241.22,207.924 2326.51,115.872 2339.63,101.107 
  2352.76,86.1857 
  "/>
<polyline clip-path="url(#clip422)" style="stroke:#e26f46; stroke-linecap:butt; stroke-linejoin:round; stroke-width:4; stroke-opacity:1; fill:none" points="
  287.366,1384.24 292.408,1377.31 297.451,1370.42 302.494,1363.57 307.536,1356.76 354.162,1295.66 400.788,1237.9 447.413,1183.42 494.039,1132.13 550.079,1074.65 
  606.119,1021.6 653.501,980.151 700.882,941.759 752.351,903.467 803.821,868.675 851.271,839.658 898.721,813.539 949.593,788.72 1000.46,767.161 1059.4,746.222 
  1118.34,729.582 1170.72,718.377 1223.1,710.526 1269.03,706.394 1314.96,704.827 1365.04,706.041 1415.12,710.304 1465.49,717.676 1515.87,728.15 1571.57,743.358 
  1627.26,762.399 1680.26,784.104 1733.25,809.341 1788.35,839.367 1843.45,873.301 1889.83,904.935 1936.22,939.413 1992.85,985.422 2049.48,1035.81 2102.71,1087.25 
  2155.94,1142.71 2241.22,1240.18 2326.51,1348.6 2339.63,1366.28 2352.76,1384.24 
  "/>
<path clip-path="url(#clip420)" d="
M1689.19 248.629 L2283.91 248.629 L2283.91 93.1086 L1689.19 93.1086  Z
  " fill="#ffffff" fill-rule="evenodd" fill-opacity="1"/>
<polyline clip-path="url(#clip420)" style="stroke:#000000; stroke-linecap:butt; stroke-linejoin:round; stroke-width:4; stroke-opacity:1; fill:none" points="
  1689.19,248.629 2283.91,248.629 2283.91,93.1086 1689.19,93.1086 1689.19,248.629 
  "/>
<polyline clip-path="url(#clip420)" style="stroke:#009af9; stroke-linecap:butt; stroke-linejoin:round; stroke-width:4; stroke-opacity:1; fill:none" points="
  1713.19,144.949 1857.19,144.949 
  "/>
<path clip-path="url(#clip420)" d="M1909.06 130.331 L1909.06 135.261 Q1906.7 133.062 1904.01 131.974 Q1901.35 130.886 1898.34 130.886 Q1892.42 130.886 1889.27 134.52 Q1886.12 138.132 1886.12 144.983 Q1886.12 151.812 1889.27 155.446 Q1892.42 159.057 1898.34 159.057 Q1901.35 159.057 1904.01 157.969 Q1906.7 156.881 1909.06 154.682 L1909.06 159.567 Q1906.61 161.233 1903.85 162.067 Q1901.12 162.9 1898.06 162.9 Q1890.22 162.9 1885.7 158.108 Q1881.19 153.293 1881.19 144.983 Q1881.19 136.65 1885.7 131.858 Q1890.22 127.044 1898.06 127.044 Q1901.17 127.044 1903.9 127.877 Q1906.65 128.687 1909.06 130.331 Z" fill="#000000" fill-rule="evenodd" fill-opacity="1" /><path clip-path="url(#clip420)" d="M1926.14 139.289 Q1922.72 139.289 1920.73 141.974 Q1918.74 144.636 1918.74 149.289 Q1918.74 153.942 1920.7 156.627 Q1922.69 159.289 1926.14 159.289 Q1929.55 159.289 1931.54 156.604 Q1933.53 153.918 1933.53 149.289 Q1933.53 144.682 1931.54 141.997 Q1929.55 139.289 1926.14 139.289 M1926.14 135.678 Q1931.7 135.678 1934.87 139.289 Q1938.04 142.9 1938.04 149.289 Q1938.04 155.655 1934.87 159.289 Q1931.7 162.9 1926.14 162.9 Q1920.56 162.9 1917.39 159.289 Q1914.24 155.655 1914.24 149.289 Q1914.24 142.9 1917.39 139.289 Q1920.56 135.678 1926.14 135.678 Z" fill="#000000" fill-rule="evenodd" fill-opacity="1" /><path clip-path="url(#clip420)" d="M1967.28 148.201 L1967.28 150.284 L1947.69 150.284 Q1947.97 154.682 1950.33 156.997 Q1952.72 159.289 1956.95 159.289 Q1959.41 159.289 1961.7 158.687 Q1964.01 158.085 1966.28 156.881 L1966.28 160.909 Q1963.99 161.881 1961.58 162.391 Q1959.17 162.9 1956.7 162.9 Q1950.49 162.9 1946.86 159.289 Q1943.25 155.678 1943.25 149.52 Q1943.25 143.155 1946.68 139.428 Q1950.12 135.678 1955.96 135.678 Q1961.19 135.678 1964.22 139.057 Q1967.28 142.414 1967.28 148.201 M1963.02 146.951 Q1962.97 143.456 1961.05 141.372 Q1959.15 139.289 1956 139.289 Q1952.44 139.289 1950.29 141.303 Q1948.16 143.317 1947.83 146.974 L1963.02 146.951 Z" fill="#000000" fill-rule="evenodd" fill-opacity="1" /><path clip-path="url(#clip420)" d="M1994.98 136.303 L1985.61 148.919 L1995.47 162.229 L1990.45 162.229 L1982.9 152.043 L1975.36 162.229 L1970.33 162.229 L1980.4 148.664 L1971.19 136.303 L1976.21 136.303 L1983.09 145.539 L1989.96 136.303 L1994.98 136.303 Z" fill="#000000" fill-rule="evenodd" fill-opacity="1" /><path clip-path="url(#clip420)" d="M2001.49 136.303 L2005.75 136.303 L2005.75 162.229 L2001.49 162.229 L2001.49 136.303 M2001.49 126.21 L2005.75 126.21 L2005.75 131.604 L2001.49 131.604 L2001.49 126.21 Z" fill="#000000" fill-rule="evenodd" fill-opacity="1" /><path clip-path="url(#clip420)" d="M2031.19 137.067 L2031.19 141.094 Q2029.38 140.169 2027.44 139.706 Q2025.49 139.243 2023.41 139.243 Q2020.24 139.243 2018.64 140.215 Q2017.07 141.187 2017.07 143.131 Q2017.07 144.613 2018.2 145.469 Q2019.34 146.303 2022.76 147.067 L2024.22 147.391 Q2028.76 148.363 2030.66 150.145 Q2032.58 151.905 2032.58 155.076 Q2032.58 158.687 2029.71 160.793 Q2026.86 162.9 2021.86 162.9 Q2019.78 162.9 2017.51 162.483 Q2015.26 162.09 2012.76 161.28 L2012.76 156.881 Q2015.12 158.108 2017.42 158.733 Q2019.71 159.335 2021.95 159.335 Q2024.96 159.335 2026.58 158.317 Q2028.2 157.275 2028.2 155.4 Q2028.2 153.664 2027.02 152.738 Q2025.86 151.812 2021.91 150.956 L2020.42 150.608 Q2016.47 149.775 2014.71 148.062 Q2012.95 146.326 2012.95 143.317 Q2012.95 139.659 2015.54 137.669 Q2018.13 135.678 2022.9 135.678 Q2025.26 135.678 2027.35 136.025 Q2029.43 136.372 2031.19 137.067 Z" fill="#000000" fill-rule="evenodd" fill-opacity="1" /><path clip-path="url(#clip420)" d="M2043.57 128.942 L2043.57 136.303 L2052.35 136.303 L2052.35 139.613 L2043.57 139.613 L2043.57 153.687 Q2043.57 156.858 2044.43 157.761 Q2045.31 158.664 2047.97 158.664 L2052.35 158.664 L2052.35 162.229 L2047.97 162.229 Q2043.04 162.229 2041.17 160.4 Q2039.29 158.548 2039.29 153.687 L2039.29 139.613 L2036.17 139.613 L2036.17 136.303 L2039.29 136.303 L2039.29 128.942 L2043.57 128.942 Z" fill="#000000" fill-rule="evenodd" fill-opacity="1" /><path clip-path="url(#clip420)" d="M2080.12 148.201 L2080.12 150.284 L2060.54 150.284 Q2060.82 154.682 2063.18 156.997 Q2065.56 159.289 2069.8 159.289 Q2072.25 159.289 2074.54 158.687 Q2076.86 158.085 2079.13 156.881 L2079.13 160.909 Q2076.84 161.881 2074.43 162.391 Q2072.02 162.9 2069.54 162.9 Q2063.34 162.9 2059.71 159.289 Q2056.1 155.678 2056.1 149.52 Q2056.1 143.155 2059.52 139.428 Q2062.97 135.678 2068.8 135.678 Q2074.04 135.678 2077.07 139.057 Q2080.12 142.414 2080.12 148.201 M2075.86 146.951 Q2075.82 143.456 2073.9 141.372 Q2072 139.289 2068.85 139.289 Q2065.29 139.289 2063.13 141.303 Q2061 143.317 2060.68 146.974 L2075.86 146.951 Z" fill="#000000" fill-rule="evenodd" fill-opacity="1" /><path clip-path="url(#clip420)" d="M2108.66 146.581 L2108.66 162.229 L2104.41 162.229 L2104.41 146.719 Q2104.41 143.039 2102.97 141.21 Q2101.54 139.382 2098.66 139.382 Q2095.22 139.382 2093.23 141.581 Q2091.23 143.78 2091.23 147.576 L2091.23 162.229 L2086.95 162.229 L2086.95 136.303 L2091.23 136.303 L2091.23 140.331 Q2092.76 137.993 2094.82 136.835 Q2096.91 135.678 2099.61 135.678 Q2104.08 135.678 2106.37 138.456 Q2108.66 141.21 2108.66 146.581 Z" fill="#000000" fill-rule="evenodd" fill-opacity="1" /><path clip-path="url(#clip420)" d="M2135.82 137.298 L2135.82 141.28 Q2134.01 140.284 2132.18 139.798 Q2130.38 139.289 2128.53 139.289 Q2124.38 139.289 2122.09 141.928 Q2119.8 144.544 2119.8 149.289 Q2119.8 154.034 2122.09 156.673 Q2124.38 159.289 2128.53 159.289 Q2130.38 159.289 2132.18 158.803 Q2134.01 158.293 2135.82 157.298 L2135.82 161.233 Q2134.04 162.067 2132.11 162.483 Q2130.22 162.9 2128.06 162.9 Q2122.21 162.9 2118.76 159.219 Q2115.31 155.539 2115.31 149.289 Q2115.31 142.946 2118.78 139.312 Q2122.28 135.678 2128.34 135.678 Q2130.31 135.678 2132.18 136.095 Q2134.06 136.488 2135.82 137.298 Z" fill="#000000" fill-rule="evenodd" fill-opacity="1" /><path clip-path="url(#clip420)" d="M2165.4 148.201 L2165.4 150.284 L2145.82 150.284 Q2146.1 154.682 2148.46 156.997 Q2150.84 159.289 2155.08 159.289 Q2157.53 159.289 2159.82 158.687 Q2162.14 158.085 2164.41 156.881 L2164.41 160.909 Q2162.11 161.881 2159.71 162.391 Q2157.3 162.9 2154.82 162.9 Q2148.62 162.9 2144.98 159.289 Q2141.37 155.678 2141.37 149.52 Q2141.37 143.155 2144.8 139.428 Q2148.25 135.678 2154.08 135.678 Q2159.31 135.678 2162.35 139.057 Q2165.4 142.414 2165.4 148.201 M2161.14 146.951 Q2161.1 143.456 2159.17 141.372 Q2157.28 139.289 2154.13 139.289 Q2150.56 139.289 2148.41 141.303 Q2146.28 143.317 2145.96 146.974 L2161.14 146.951 Z" fill="#000000" fill-rule="evenodd" fill-opacity="1" /><polyline clip-path="url(#clip420)" style="stroke:#e26f46; stroke-linecap:butt; stroke-linejoin:round; stroke-width:4; stroke-opacity:1; fill:none" points="
  1713.19,196.789 1857.19,196.789 
  "/>
<path clip-path="url(#clip420)" d="M1881.19 179.509 L1887.49 179.509 L1902.81 208.421 L1902.81 179.509 L1907.35 179.509 L1907.35 214.069 L1901.05 214.069 L1885.73 185.157 L1885.73 214.069 L1881.19 214.069 L1881.19 179.509 Z" fill="#000000" fill-rule="evenodd" fill-opacity="1" /><path clip-path="url(#clip420)" d="M1926.51 191.129 Q1923.09 191.129 1921.1 193.814 Q1919.11 196.476 1919.11 201.129 Q1919.11 205.782 1921.07 208.467 Q1923.06 211.129 1926.51 211.129 Q1929.92 211.129 1931.91 208.444 Q1933.9 205.758 1933.9 201.129 Q1933.9 196.522 1931.91 193.837 Q1929.92 191.129 1926.51 191.129 M1926.51 187.518 Q1932.07 187.518 1935.24 191.129 Q1938.41 194.74 1938.41 201.129 Q1938.41 207.495 1935.24 211.129 Q1932.07 214.74 1926.51 214.74 Q1920.93 214.74 1917.76 211.129 Q1914.61 207.495 1914.61 201.129 Q1914.61 194.74 1917.76 191.129 Q1920.93 187.518 1926.51 187.518 Z" fill="#000000" fill-rule="evenodd" fill-opacity="1" /><path clip-path="url(#clip420)" d="M1979.2 189.138 L1979.2 193.12 Q1977.39 192.124 1975.56 191.638 Q1973.76 191.129 1971.91 191.129 Q1967.76 191.129 1965.47 193.768 Q1963.18 196.384 1963.18 201.129 Q1963.18 205.874 1965.47 208.513 Q1967.76 211.129 1971.91 211.129 Q1973.76 211.129 1975.56 210.643 Q1977.39 210.133 1979.2 209.138 L1979.2 213.073 Q1977.42 213.907 1975.49 214.323 Q1973.6 214.74 1971.44 214.74 Q1965.59 214.74 1962.14 211.059 Q1958.69 207.379 1958.69 201.129 Q1958.69 194.786 1962.16 191.152 Q1965.66 187.518 1971.72 187.518 Q1973.69 187.518 1975.56 187.935 Q1977.44 188.328 1979.2 189.138 Z" fill="#000000" fill-rule="evenodd" fill-opacity="1" /><path clip-path="url(#clip420)" d="M1996.65 191.129 Q1993.23 191.129 1991.23 193.814 Q1989.24 196.476 1989.24 201.129 Q1989.24 205.782 1991.21 208.467 Q1993.2 211.129 1996.65 211.129 Q2000.05 211.129 2002.05 208.444 Q2004.04 205.758 2004.04 201.129 Q2004.04 196.522 2002.05 193.837 Q2000.05 191.129 1996.65 191.129 M1996.65 187.518 Q2002.21 187.518 2005.38 191.129 Q2008.55 194.74 2008.55 201.129 Q2008.55 207.495 2005.38 211.129 Q2002.21 214.74 1996.65 214.74 Q1991.07 214.74 1987.9 211.129 Q1984.75 207.495 1984.75 201.129 Q1984.75 194.74 1987.9 191.129 Q1991.07 187.518 1996.65 187.518 Z" fill="#000000" fill-rule="evenodd" fill-opacity="1" /><path clip-path="url(#clip420)" d="M2037.79 200.041 L2037.79 202.124 L2018.2 202.124 Q2018.48 206.522 2020.84 208.837 Q2023.23 211.129 2027.46 211.129 Q2029.92 211.129 2032.21 210.527 Q2034.52 209.925 2036.79 208.721 L2036.79 212.749 Q2034.5 213.721 2032.09 214.231 Q2029.68 214.74 2027.21 214.74 Q2021 214.74 2017.37 211.129 Q2013.76 207.518 2013.76 201.36 Q2013.76 194.995 2017.18 191.268 Q2020.63 187.518 2026.47 187.518 Q2031.7 187.518 2034.73 190.897 Q2037.79 194.254 2037.79 200.041 M2033.53 198.791 Q2033.48 195.296 2031.56 193.212 Q2029.66 191.129 2026.51 191.129 Q2022.95 191.129 2020.79 193.143 Q2018.67 195.157 2018.34 198.814 L2033.53 198.791 Z" fill="#000000" fill-rule="evenodd" fill-opacity="1" /><path clip-path="url(#clip420)" d="M2065.49 188.143 L2056.12 200.759 L2065.98 214.069 L2060.96 214.069 L2053.41 203.883 L2045.86 214.069 L2040.84 214.069 L2050.91 200.504 L2041.7 188.143 L2046.72 188.143 L2053.6 197.379 L2060.47 188.143 L2065.49 188.143 Z" fill="#000000" fill-rule="evenodd" fill-opacity="1" /><path clip-path="url(#clip420)" d="M2072 188.143 L2076.26 188.143 L2076.26 214.069 L2072 214.069 L2072 188.143 M2072 178.05 L2076.26 178.05 L2076.26 183.444 L2072 183.444 L2072 178.05 Z" fill="#000000" fill-rule="evenodd" fill-opacity="1" /><path clip-path="url(#clip420)" d="M2101.7 188.907 L2101.7 192.934 Q2099.89 192.009 2097.95 191.546 Q2096 191.083 2093.92 191.083 Q2090.75 191.083 2089.15 192.055 Q2087.58 193.027 2087.58 194.971 Q2087.58 196.453 2088.71 197.309 Q2089.85 198.143 2093.27 198.907 L2094.73 199.231 Q2099.27 200.203 2101.16 201.985 Q2103.09 203.745 2103.09 206.916 Q2103.09 210.527 2100.22 212.633 Q2097.37 214.74 2092.37 214.74 Q2090.29 214.74 2088.02 214.323 Q2085.77 213.93 2083.27 213.12 L2083.27 208.721 Q2085.63 209.948 2087.92 210.573 Q2090.22 211.175 2092.46 211.175 Q2095.47 211.175 2097.09 210.157 Q2098.71 209.115 2098.71 207.24 Q2098.71 205.504 2097.53 204.578 Q2096.37 203.652 2092.41 202.796 L2090.93 202.448 Q2086.98 201.615 2085.22 199.902 Q2083.46 198.166 2083.46 195.157 Q2083.46 191.499 2086.05 189.509 Q2088.64 187.518 2093.41 187.518 Q2095.77 187.518 2097.85 187.865 Q2099.94 188.212 2101.7 188.907 Z" fill="#000000" fill-rule="evenodd" fill-opacity="1" /><path clip-path="url(#clip420)" d="M2114.08 180.782 L2114.08 188.143 L2122.85 188.143 L2122.85 191.453 L2114.08 191.453 L2114.08 205.527 Q2114.08 208.698 2114.94 209.601 Q2115.82 210.504 2118.48 210.504 L2122.85 210.504 L2122.85 214.069 L2118.48 214.069 Q2113.55 214.069 2111.67 212.24 Q2109.8 210.388 2109.8 205.527 L2109.8 191.453 L2106.67 191.453 L2106.67 188.143 L2109.8 188.143 L2109.8 180.782 L2114.08 180.782 Z" fill="#000000" fill-rule="evenodd" fill-opacity="1" /><path clip-path="url(#clip420)" d="M2150.63 200.041 L2150.63 202.124 L2131.05 202.124 Q2131.33 206.522 2133.69 208.837 Q2136.07 211.129 2140.31 211.129 Q2142.76 211.129 2145.05 210.527 Q2147.37 209.925 2149.64 208.721 L2149.64 212.749 Q2147.35 213.721 2144.94 214.231 Q2142.53 214.74 2140.05 214.74 Q2133.85 214.74 2130.22 211.129 Q2126.6 207.518 2126.6 201.36 Q2126.6 194.995 2130.03 191.268 Q2133.48 187.518 2139.31 187.518 Q2144.54 187.518 2147.58 190.897 Q2150.63 194.254 2150.63 200.041 M2146.37 198.791 Q2146.33 195.296 2144.41 193.212 Q2142.51 191.129 2139.36 191.129 Q2135.79 191.129 2133.64 193.143 Q2131.51 195.157 2131.19 198.814 L2146.37 198.791 Z" fill="#000000" fill-rule="evenodd" fill-opacity="1" /><path clip-path="url(#clip420)" d="M2179.17 198.421 L2179.17 214.069 L2174.91 214.069 L2174.91 198.559 Q2174.91 194.879 2173.48 193.05 Q2172.04 191.222 2169.17 191.222 Q2165.72 191.222 2163.73 193.421 Q2161.74 195.62 2161.74 199.416 L2161.74 214.069 L2157.46 214.069 L2157.46 188.143 L2161.74 188.143 L2161.74 192.171 Q2163.27 189.833 2165.33 188.675 Q2167.41 187.518 2170.12 187.518 Q2174.59 187.518 2176.88 190.296 Q2179.17 193.05 2179.17 198.421 Z" fill="#000000" fill-rule="evenodd" fill-opacity="1" /><path clip-path="url(#clip420)" d="M2206.33 189.138 L2206.33 193.12 Q2204.52 192.124 2202.69 191.638 Q2200.89 191.129 2199.03 191.129 Q2194.89 191.129 2192.6 193.768 Q2190.31 196.384 2190.31 201.129 Q2190.31 205.874 2192.6 208.513 Q2194.89 211.129 2199.03 211.129 Q2200.89 211.129 2202.69 210.643 Q2204.52 210.133 2206.33 209.138 L2206.33 213.073 Q2204.54 213.907 2202.62 214.323 Q2200.72 214.74 2198.57 214.74 Q2192.72 214.74 2189.27 211.059 Q2185.82 207.379 2185.82 201.129 Q2185.82 194.786 2189.29 191.152 Q2192.78 187.518 2198.85 187.518 Q2200.82 187.518 2202.69 187.935 Q2204.57 188.328 2206.33 189.138 Z" fill="#000000" fill-rule="evenodd" fill-opacity="1" /><path clip-path="url(#clip420)" d="M2235.91 200.041 L2235.91 202.124 L2216.33 202.124 Q2216.6 206.522 2218.97 208.837 Q2221.35 211.129 2225.59 211.129 Q2228.04 211.129 2230.33 210.527 Q2232.65 209.925 2234.91 208.721 L2234.91 212.749 Q2232.62 213.721 2230.22 214.231 Q2227.81 214.74 2225.33 214.74 Q2219.13 214.74 2215.49 211.129 Q2211.88 207.518 2211.88 201.36 Q2211.88 194.995 2215.31 191.268 Q2218.76 187.518 2224.59 187.518 Q2229.82 187.518 2232.85 190.897 Q2235.91 194.254 2235.91 200.041 M2231.65 198.791 Q2231.6 195.296 2229.68 193.212 Q2227.78 191.129 2224.64 191.129 Q2221.07 191.129 2218.92 193.143 Q2216.79 195.157 2216.47 198.814 L2231.65 198.791 Z" fill="#000000" fill-rule="evenodd" fill-opacity="1" /></svg>
